# Scalar ASCII output created by CarpetIOScalar
# created on soultanakos-Inspiron-3558 by soultanakos on Oct 02 2018 at 21:16:03+0200
# parameter filename: "/home/soultanakos/simulations/H4_diff_rot_r75/output-0000/ET_Thessaloniki_PP_Hydro_RNSID_static.par"
# Build ID: build-rot_star_hydro_rnsid-soultanakos-Inspiron-3558-soultanakos-2018.10.02-19.09.34-4308
# Simulation ID: run-ET_Thessaloniki_PP_Hydro_RNSID_static-soultanakos-Inspiron-3558-soultanakos-2018.10.02-19.15.27-7307
# Run ID: run-ET_Thessaloniki_PP_Hydro_RNSID_static-soultanakos-Inspiron-3558-soultanakos-2018.10.02-19.15.27-7307
#
# HYDROBASE::eps (hydrobase-eps)
# 1:iteration 2:time 3:data
# data columns: 3:eps
0 0 0.000112510534587067
512 3 0.000117359964529877
1024 6 0.000118900655869679
1536 9 0.000120284202702851
2048 12 0.000121478666854043
2560 15 0.000122480436914754
3072 18 0.000123460127039914
3584 21 0.000124535099578885
4096 24 0.000125438231715574
4608 27 0.000126280591114012
5120 30 0.000127306197020035
5632 33 0.000128377764314303
6144 36 0.000129510168760984
6656 39 0.000130584621761259
7168 42 0.000131661939829114
7680 45 0.000132877696858119
8192 48 0.000134215779476046
8704 51 0.000135620029252236
9216 54 0.000137111145013703
9728 57 0.000138628228771426
10240 60 0.000140360086221201
10752 63 0.00014217627312468
11264 66 0.000144091320633364
11776 69 0.000146029754913776
12288 72 0.000148133637511344
12800 75 0.000150366367278903
13312 78 0.000152502976492618
13824 81 0.000154759060990404
14336 84 0.000157196789559626
14848 87 0.000159918695223313
15360 90 0.000162715640119392
15872 93 0.000165689368107249
16384 96 0.000168977628889595
16896 99 0.000172429694100687
17408 102 0.000176108712850512
17920 105 0.000179755558977567
18432 108 0.000183486180926371
18944 111 0.000187662992899308
19456 114 0.000193439625484844
19968 117 0.000198844357790946
20480 120 0.000202323908506002
20992 123 0.000205954785513385
21504 126 0.00021014925574657
22016 129 0.00021480855707212
22528 132 0.000219791815407312
23040 135 0.000224964838838274
23552 138 0.000230263405815277
24064 141 0.000235623564605804
24576 144 0.000241340373547454
25088 147 0.000247596539212323
25600 150 0.000254024798522204
26112 153 0.000260886356106355
26624 156 0.000268297226291752
27136 159 0.000276139597964202
27648 162 0.000284403724442424
28160 165 0.000293760500158157
28672 168 0.000303502245472162
29184 171 0.000313059862100983
29696 174 0.000322256542713725
30208 177 0.000331084636480644
30720 180 0.000339738954806031
31232 183 0.000348680422766169
31744 186 0.000357929277201638
32256 189 0.000367219961766463
32768 192 0.000376692615097182
33280 195 0.000386439274649902
33792 198 0.000396084397453636
34304 201 0.000405881735599659
34816 204 0.000415930456414411
35328 207 0.000426390316735058
35840 210 0.000437685457746731
36352 213 0.000450450199455916
36864 216 0.000465113628846884
37376 219 0.000481640810926635
37888 222 0.000499647813146362
38400 225 0.0005192050057728
38912 228 0.000539908134417584
39424 231 0.000561632713752501
39936 234 0.000584350014248868
40448 237 0.000608101314293758
40960 240 0.000633034591756366
41472 243 0.000659096282537016
41984 246 0.000686624157378979
42496 249 0.000716055728805942
43008 252 0.000747745613392904
43520 255 0.000781447013472508
44032 258 0.000816787994112062
44544 261 0.000853302744614722
45056 264 0.000889583731460758
45568 267 0.000926413660719347
46080 270 0.000963996710618919
46592 273 0.00100206762986176
47104 276 0.00104059280940388
47616 279 0.00108044448668044
48128 282 0.0011191717250815
48640 285 0.00115524826503214
49152 288 0.00119108274004716
49664 291 0.00122597993330855
50176 294 0.00125926644860683
50688 297 0.00129247439273185
51200 300 0.00132589525936403
51712 303 0.00135912416419277
52224 306 0.00139143849871776
52736 309 0.00142365629979543
53248 312 0.00145659030965581
53760 315 0.00149006140937273
54272 318 0.00152307483266292
54784 321 0.00155576743307326
55296 324 0.00158859769871638
55808 327 0.00162165936946751
56320 330 0.00165468132838668
56832 333 0.00168816754151928
57344 336 0.00172162066608212
57856 339 0.00175622255188561
58368 342 0.00179175003607524
58880 345 0.00182766978770393
59392 348 0.00186426060725533
59904 351 0.00190255620780476
60416 354 0.0019420139716609
60928 357 0.00198108972221603
61440 360 0.00201818564884255
61952 363 0.00205367689929055
62464 366 0.00208803275144987
62976 369 0.0021221568198658
63488 372 0.00215695825894999
64000 375 0.00219151463393141
64512 378 0.00222680047718008
65024 381 0.00226326066298183
65536 384 0.00230111308751604
66048 387 0.00234035278607381
66560 390 0.00238125082364811
67072 393 0.00242193836976485
67584 396 0.00246275615049028
68096 399 0.00250277971369126
68608 402 0.00254287046570128
69120 405 0.00258347366252063
69632 408 0.0026226040170723
70144 411 0.00266278610414012
70656 414 0.00270321826458925
71168 417 0.0027444038419311
71680 420 0.00278604070564654
72192 423 0.00282780026799054
72704 426 0.00286993602814941
73216 429 0.00291161345212319
73728 432 0.00295134602411742
74240 435 0.00299535350587652
74752 438 0.0030396512437372
75264 441 0.00308335195889093
75776 444 0.00312804380594998
76288 447 0.00317396791142121
76800 450 0.00321755510484178
77312 453 0.00326274325049972
77824 456 0.00330953653094397
78336 459 0.00335658264985944
78848 462 0.00340418252221026
79360 465 0.00345114704755352
79872 468 0.00349819000703417
80384 471 0.00354569448217193
80896 474 0.0035930458204942
81408 477 0.00364122441119563
81920 480 0.00368953618466149
82432 483 0.00373788026812072
82944 486 0.00378535321392623
83456 489 0.00383339548287709
83968 492 0.00388189291497423
84480 495 0.00393176983473736
84992 498 0.00398105630550366
85504 501 0.00402894029032269
86016 504 0.00407812817170486
86528 507 0.00412804301054162
87040 510 0.00417905528956486
87552 513 0.00422741912985372
88064 516 0.00427729049427632
88576 519 0.00432619142653915
89088 522 0.00437416940326376
89600 525 0.00442036591422614
90112 528 0.00446532608565073
90624 531 0.00450527703568836
91136 534 0.00454563043057891
91648 537 0.00458462244063313
92160 540 0.00462084599760792
92672 543 0.00465464730526062
93184 546 0.00468784673220479
93696 549 0.00472064412260736
94208 552 0.00475211542950781
94720 555 0.00478202917728628
95232 558 0.00480996118601451
95744 561 0.0048338614347066
96256 564 0.00485638370091577
96768 567 0.00487916047545471
97280 570 0.00489973616723693
97792 573 0.00492070631813054
98304 576 0.004941133763984
98816 579 0.00495910542772828
99328 582 0.00497665174434777
99840 585 0.00499394337353387
100352 588 0.00501085850534333
100864 591 0.00502320558961919
101376 594 0.005036753255051
101888 597 0.00505027584777596
102400 600 0.00506216274547382
102912 603 0.00507127701746424
103424 606 0.0050813231824575
103936 609 0.005082684889542
104448 612 0.00508800044768132
104960 615 0.00509354643932209
105472 618 0.00510159423710804
105984 621 0.00510821563282686
106496 624 0.00511399301860712
107008 627 0.0051192333303421
107520 630 0.0051246351879193
108032 633 0.00512907127711523
108544 636 0.00513591013656532
109056 639 0.00513628843423577
109568 642 0.00514222256927641
110080 645 0.00514419612769913
110592 648 0.00514744241606377
111104 651 0.00514694613801408
111616 654 0.0051495827140095
112128 657 0.00515222968709692
112640 660 0.00515475470476911
113152 663 0.00515541400403233
113664 666 0.00515732781592557
114176 669 0.00516011622420079
114688 672 0.00515762346972211
115200 675 0.00516102108762244
115712 678 0.0051623358120631
116224 681 0.00516441359727973
116736 684 0.00516635857178393
117248 687 0.00516557695848701
117760 690 0.00516474960821564
118272 693 0.00516680792907375
118784 696 0.00516911799110965
119296 699 0.00516998215648183
119808 702 0.00516992147674688
120320 705 0.00516716710146187
120832 708 0.00516293132836361
121344 711 0.00516064588624139
121856 714 0.00515845787554493
122368 717 0.00515582987142107
122880 720 0.00515285007170798
123392 723 0.00514764117575669
123904 726 0.00514166675093493
124416 729 0.00513644114111638
124928 732 0.00513142990738576
125440 735 0.005125242510877
125952 738 0.00511958004450013
126464 741 0.00511556096623898
126976 744 0.00511031973035619
127488 747 0.00510547766089151
128000 750 0.00510120987285428
128512 753 0.0050949153681148
129024 756 0.00508925177096489
129536 759 0.00508197780115951
130048 762 0.00507637427367677
130560 765 0.00506911392954297
131072 768 0.00506107120272929
131584 771 0.00505526863794482
132096 774 0.005048984601334
132608 777 0.00504148863870804
133120 780 0.00503366563559513
133632 783 0.00502421047480503
134144 786 0.00501498078085005
134656 789 0.00500545232134228
135168 792 0.00499682273569794
135680 795 0.00498709476104663
136192 798 0.0049777927049093
136704 801 0.00496834881845015
137216 804 0.00495749962850293
137728 807 0.00494678650026189
138240 810 0.00493505092082833
138752 813 0.00492414957022953
139264 816 0.0049129766993194
139776 819 0.00490061202850763
140288 822 0.00488816594505408
140800 825 0.00487667364930735
141312 828 0.00486473883789421
141824 831 0.00485177744173566
142336 834 0.00483934994747425
142848 837 0.00482593168942686
143360 840 0.0048118729914555
143872 843 0.00479822625847172
144384 846 0.0047835826032483
144896 849 0.00477064352358793
145408 852 0.00475587087236252
145920 855 0.00474147170155209
146432 858 0.00472587936298226
146944 861 0.00471132316677693
147456 864 0.0046963085910296
147968 867 0.00468140244945295
148480 870 0.00466696179778492
148992 873 0.00465306465775377
149504 876 0.0046382948964557
150016 879 0.00462299290083976
150528 882 0.0046085677642646
151040 885 0.00459396851331091
151552 888 0.00457754283479138
152064 891 0.00456113152907812
152576 894 0.00454719849183593
153088 897 0.00453227478401657
153600 900 0.00451775070073759
154112 903 0.00450395686347418
154624 906 0.00449000640075781
155136 909 0.00447508828246423
155648 912 0.00445954542958071
156160 915 0.00444550057892033
156672 918 0.00443146127916223
157184 921 0.00441713444595826
157696 924 0.00440275770955115
158208 927 0.00438918326217027
158720 930 0.00437552104256153
159232 933 0.00436120789615465
159744 936 0.00434685521787923
160256 939 0.00433300638127299
160768 942 0.00431890636157689
161280 945 0.0043050476607031
161792 948 0.00429139543160985
162304 951 0.00427768320837384
162816 954 0.0042641249343523
163328 957 0.00425072177951265
163840 960 0.00423735773963189
164352 963 0.00422390683325567
164864 966 0.00421012426506204
165376 969 0.00419672357300858
165888 972 0.00418292688399061
166400 975 0.00416996719743579
166912 978 0.0041566003092844
167424 981 0.00414330869693585
167936 984 0.00412986232280037
168448 987 0.00411676768146002
168960 990 0.00410296311037109
169472 993 0.00408966395082724
169984 996 0.00407637948849034
170496 999 0.0040636980325644
171008 1002 0.0040502837119247
171520 1005 0.00403733824315991
172032 1008 0.00402458691207769
172544 1011 0.00401169677483088
173056 1014 0.00399826217930138
173568 1017 0.00398508118171006
174080 1020 0.00397206528822226
174592 1023 0.0039590397577153
175104 1026 0.00394617599668126
175616 1029 0.00393377846822119
176128 1032 0.00392105862044761
176640 1035 0.00390794449426136
177152 1038 0.00389526559373078
177664 1041 0.00388281306398365
178176 1044 0.00387033763143123
178688 1047 0.0038576504822261
179200 1050 0.0038451334964207
179712 1053 0.0038325656236077
180224 1056 0.00381936429757361
180736 1059 0.00380683898876757
181248 1062 0.00379463434293071
181760 1065 0.00378189070855947
182272 1068 0.00377015473792676
182784 1071 0.00375686435591329
183296 1074 0.00374520279449558
183808 1077 0.00373411375071853
184320 1080 0.0037223848057207
184832 1083 0.00371004416054698
185344 1086 0.00369922638756875
185856 1089 0.00368754657447295
186368 1092 0.0036771090678445
186880 1095 0.00366539230979038
187392 1098 0.00365524899405589
187904 1101 0.00364284370081324
188416 1104 0.00363168449283754
188928 1107 0.00362027902204848
189440 1110 0.0036090352488424
189952 1113 0.00359453387470624
190464 1116 0.00358276200740235
190976 1119 0.00357096267419133
191488 1122 0.00355873611037297
192000 1125 0.00354789956189911
192512 1128 0.00353533585275998
193024 1131 0.00352298327460714
193536 1134 0.00351064583032238
194048 1137 0.00349881833107302
194560 1140 0.0034875687325375
195072 1143 0.00347611846551634
195584 1146 0.00346536578184904
196096 1149 0.00345400423771837
196608 1152 0.0034413775797377
197120 1155 0.0034289605054039
197632 1158 0.00341850666342641
198144 1161 0.0034074162503088
198656 1164 0.00339489158893012
199168 1167 0.00338279331980601
199680 1170 0.00337154723747153
200192 1173 0.00335977309266776
200704 1176 0.00334979299030367
201216 1179 0.00333770303965824
201728 1182 0.00332759613386356
202240 1185 0.003318006592717
202752 1188 0.00330774342467334
203264 1191 0.0032958252777677
203776 1194 0.00328459205312228
204288 1197 0.00327185570306738
204800 1200 0.00326228249651123
205312 1203 0.00325126229429174
205824 1206 0.00324062469248868
206336 1209 0.00323052729931489
206848 1212 0.00322009571402366
207360 1215 0.00321046205499039
207872 1218 0.0032012170571646
208384 1221 0.00319072071971916
208896 1224 0.00318168639631119
209408 1227 0.00317306532399958
209920 1230 0.00316442017590517
210432 1233 0.0031555026270319
210944 1236 0.00314650371397766
211456 1239 0.00313624247216915
211968 1242 0.00312732901493819
212480 1245 0.00311799961442382
212992 1248 0.0031097798532639
213504 1251 0.00309941054252925
214016 1254 0.00309101161803402
214528 1257 0.00308311556462937
215040 1260 0.00307559394437213
215552 1263 0.00306753154545515
216064 1266 0.00305980850565043
216576 1269 0.00305332445083926
217088 1272 0.00304561318679419
217600 1275 0.00303887181318932
218112 1278 0.00303252747669099
218624 1281 0.0030260876896128
219136 1284 0.00301970535397579
219648 1287 0.0030130486481496
220160 1290 0.00300674176837351
220672 1293 0.00299994176037023
221184 1296 0.00299418324714209
221696 1299 0.0029882719664768
222208 1302 0.00298175059805969
222720 1305 0.0029752672476738
223232 1308 0.00296919658133351
223744 1311 0.00296373999756804
224256 1314 0.00295708595124394
224768 1317 0.00295108853919751
225280 1320 0.00294520445726352
225792 1323 0.00293970680196443
226304 1326 0.00293387434438947
226816 1329 0.00292831457285044
227328 1332 0.00292273411152254
227840 1335 0.00291704466561778
228352 1338 0.00291086596249553
228864 1341 0.0029055388890639
229376 1344 0.00289985662786447
229888 1347 0.00289481913417798
230400 1350 0.00288895872688047
230912 1353 0.00288393503472272
231424 1356 0.00287924586684365
231936 1359 0.00287445811313399
232448 1362 0.00286956744707342
232960 1365 0.0028646624850797
233472 1368 0.00285956509690223
233984 1371 0.00285526638186898
234496 1374 0.00285057282773816
235008 1377 0.00284608710241539
235520 1380 0.00284149781295643
236032 1383 0.0028371834322136
236544 1386 0.00283309891861447
237056 1389 0.00282868803073821
237568 1392 0.00282427158416828
238080 1395 0.00282016866994056
238592 1398 0.0028154482092875
239104 1401 0.00281093066683192
239616 1404 0.00280599961843537
240128 1407 0.00280172447633435
240640 1410 0.00279735002077611
241152 1413 0.00279285012778706
241664 1416 0.00278858914547201
242176 1419 0.00278473547650149
242688 1422 0.00278088089734413
243200 1425 0.00277631303888863
243712 1428 0.00277285095004696
244224 1431 0.00276919273682636
244736 1434 0.00276533199654437
245248 1437 0.00276167449395469
245760 1440 0.00275821364010117
246272 1443 0.0027544484543188
246784 1446 0.00275069149018379
247296 1449 0.0027466668590209
247808 1452 0.00274286167925917
248320 1455 0.00273901127654387
248832 1458 0.00273482521740955
249344 1461 0.00273054034317186
249856 1464 0.00272686327054751
250368 1467 0.00272253689475225
250880 1470 0.00271877846105338
251392 1473 0.0027141935995199
251904 1476 0.00270964577312646
252416 1479 0.0027056466703102
252928 1482 0.00270085154657864
253440 1485 0.00269662742322968
253952 1488 0.00269132453159918
254464 1491 0.00268679657330569
254976 1494 0.00268205503073789
255488 1497 0.00267718221816588
256000 1500 0.00267301906511497
256512 1503 0.00266917025299524
257024 1506 0.00266472805862395
257536 1509 0.00265984226411075
258048 1512 0.00265553643602906
258560 1515 0.00265176660697523
259072 1518 0.00264778670076045
259584 1521 0.002643200296505
260096 1524 0.0026384267341534
260608 1527 0.00263429057010722
261120 1530 0.00263058833980546
261632 1533 0.0026267448808128
262144 1536 0.00262317575295375
262656 1539 0.00261960804279379
263168 1542 0.00261628582840743
263680 1545 0.00261252377208026
264192 1548 0.00260920706183487
264704 1551 0.00260609843857182
265216 1554 0.00260302141346206
265728 1557 0.00259944267744173
266240 1560 0.00259540279161553
266752 1563 0.00259226895829129
267264 1566 0.00258801378776859
267776 1569 0.00258465270032989
268288 1572 0.00258023859150037
268800 1575 0.00257705572884511
269312 1578 0.00257324385479847
269824 1581 0.00256996815868857
270336 1584 0.00256666500529355
270848 1587 0.00256285761009009
271360 1590 0.00255934275135718
271872 1593 0.00255579086093967
272384 1596 0.00255264094628999
272896 1599 0.00254933791591956
273408 1602 0.0025453547210722
273920 1605 0.0025413424089313
274432 1608 0.00253817190290499
274944 1611 0.00253439955493111
275456 1614 0.0025307602551116
275968 1617 0.00252707191530971
276480 1620 0.00252384391803439
276992 1623 0.00252038609638329
277504 1626 0.00251733598674621
278016 1629 0.0025140738797446
278528 1632 0.00251084809665708
279040 1635 0.00250742763974509
279552 1638 0.00250412698766248
280064 1641 0.00250095135517797
280576 1644 0.00249751778924798
281088 1647 0.00249458717662898
281600 1650 0.00249147330616519
282112 1653 0.00248805223750699
282624 1656 0.00248510749017889
283136 1659 0.00248183147346818
283648 1662 0.00247810303084181
284160 1665 0.00247488570567039
284672 1668 0.00247192125198386
285184 1671 0.00246862123556505
285696 1674 0.00246532945453692
286208 1677 0.00246234170921158
286720 1680 0.00245890507462648
287232 1683 0.00245587502630674
287744 1686 0.00245313823059435
288256 1689 0.00245063191939989
288768 1692 0.00244788959372319
289280 1695 0.0024451846111407
289792 1698 0.00244247996460797
290304 1701 0.00243966103267811
290816 1704 0.00243686960462055
291328 1707 0.00243411055575174
291840 1710 0.00243125168081457
292352 1713 0.00242833331670917
292864 1716 0.0024257384465855
293376 1719 0.00242267788372157
293888 1722 0.00241969338405702
294400 1725 0.00241716416757842
294912 1728 0.00241409266955697
295424 1731 0.0024111718303723
295936 1734 0.00240872748034621
296448 1737 0.0024061875773082
296960 1740 0.00240332071802817
297472 1743 0.00240052703736335
297984 1746 0.00239808199548454
298496 1749 0.00239554624590828
299008 1752 0.00239331329125312
299520 1755 0.00239074278375316
300032 1758 0.00238820003211879
300544 1761 0.00238562539748273
301056 1764 0.00238287103885372
301568 1767 0.00238005616286764
302080 1770 0.00237764045726484
302592 1773 0.00237515703885195
303104 1776 0.00237258190728853
303616 1779 0.00237024279506208
304128 1782 0.0023678230742288
304640 1785 0.00236537457093015
305152 1788 0.00236309046221986
305664 1791 0.00236032861763904
306176 1794 0.00235811435508622
306688 1797 0.00235606836872138
307200 1800 0.00235404775446492
307712 1803 0.00235174477339855
308224 1806 0.00234946813953877
308736 1809 0.00234730800137346
309248 1812 0.00234526672437165
309760 1815 0.00234308548537968
310272 1818 0.00234085713894162
310784 1821 0.00233885558345471
311296 1824 0.00233652583616876
311808 1827 0.00233487097873738
312320 1830 0.00233314928544941
312832 1833 0.00233108013454029
313344 1836 0.00232908029602721
313856 1839 0.00232723208842401
314368 1842 0.0023253154081764
314880 1845 0.00232344819147721
315392 1848 0.00232132295767428
315904 1851 0.00231911164454934
316416 1854 0.00231690509249966
316928 1857 0.00231488816831824
317440 1860 0.00231290328278585
317952 1863 0.00231093073626715
318464 1866 0.00230895248317386
318976 1869 0.00230652016132041
319488 1872 0.00230445264861202
320000 1875 0.00230212286066181
320512 1878 0.00230007141355193
321024 1881 0.0022980320197445
321536 1884 0.00229575898492794
322048 1887 0.00229380724232134
322560 1890 0.00229148780846316
323072 1893 0.00228949561531555
323584 1896 0.00228760650482544
324096 1899 0.00228572189342506
324608 1902 0.00228348174284681
325120 1905 0.00228131782454642
325632 1908 0.00227904476479491
326144 1911 0.0022768316631643
326656 1914 0.00227402044836125
327168 1917 0.00227168215804087
327680 1920 0.00226930173929101
328192 1923 0.00226688098975757
328704 1926 0.00226427868005498
329216 1929 0.00226196849226145
329728 1932 0.00225978620958374
330240 1935 0.00225690858728428
330752 1938 0.00225421226791038
331264 1941 0.00225185558664154
331776 1944 0.00224979225364697
332288 1947 0.00224756583231779
332800 1950 0.00224520340953708
333312 1953 0.00224298534430931
333824 1956 0.00224064166327455
334336 1959 0.00223827156586706
334848 1962 0.00223602635695694
335360 1965 0.00223430223772554
335872 1968 0.00223230345695772
336384 1971 0.00223017840937565
336896 1974 0.00222806199276571
337408 1977 0.00222562588053911
337920 1980 0.00222361511978959
338432 1983 0.00222119968787804
338944 1986 0.00221869440617591
339456 1989 0.00221664065045384
339968 1992 0.00221449673590403
340480 1995 0.00221234498110167
340992 1998 0.00221013241272682
341504 2001 0.00220780168503323
342016 2004 0.00220556916302845
342528 2007 0.00220310043991886
343040 2010 0.00220116653539793
343552 2013 0.00219922989209734
344064 2016 0.00219736313514508
344576 2019 0.0021949036947551
345088 2022 0.00219302503408592
345600 2025 0.00219074814944595
346112 2028 0.00218851315787853
346624 2031 0.00218609576617509
347136 2034 0.00218393117530142
347648 2037 0.00218215152539143
348160 2040 0.00218035265576129
348672 2043 0.00217856844616882
349184 2046 0.00217661580720479
349696 2049 0.0021747504693094
350208 2052 0.0021730089770705
350720 2055 0.00217121745000198
351232 2058 0.00216930782516809
351744 2061 0.00216752006273114
352256 2064 0.00216568142414617
352768 2067 0.00216395735658462
353280 2070 0.00216234209076705
353792 2073 0.00216047810328381
354304 2076 0.00215859455974093
354816 2079 0.00215696928198061
355328 2082 0.00215543453930776
355840 2085 0.00215376684217342
356352 2088 0.00215196472184354
356864 2091 0.00215042075678401
357376 2094 0.0021486783227883
357888 2097 0.00214698953527803
358400 2100 0.00214502956555332
358912 2103 0.00214331100652954
359424 2106 0.00214131188374737
359936 2109 0.00213926683813991
360448 2112 0.00213748250300331
360960 2115 0.00213569209084644
361472 2118 0.00213409604858979
361984 2121 0.00213254508397711
362496 2124 0.00213117079840511
363008 2127 0.00212967967216748
363520 2130 0.00212811322134614
364032 2133 0.00212632641514624
364544 2136 0.00212482959676014
365056 2139 0.00212291307529175
365568 2142 0.00212082936803427
366080 2145 0.00211932227371099
366592 2148 0.00211770300917724
367104 2151 0.00211605556143646
367616 2154 0.0021143379128343
368128 2157 0.00211289125847326
368640 2160 0.0021115919218161
369152 2163 0.00210992085520348
369664 2166 0.00210860117777525
370176 2169 0.00210735529179215
370688 2172 0.00210585695146765
371200 2175 0.0021045184852434
371712 2178 0.00210336126459439
372224 2181 0.0021018854046925
372736 2184 0.00210042830883798
373248 2187 0.00209915205296299
373760 2190 0.00209776282303312
374272 2193 0.00209605718520188
374784 2196 0.0020946328896678
375296 2199 0.00209338900605997
375808 2202 0.00209230792994398
376320 2205 0.00209098201972495
376832 2208 0.00208956896543003
377344 2211 0.00208762504467593
377856 2214 0.00208602201402439
378368 2217 0.00208451826165556
378880 2220 0.00208262017598999
379392 2223 0.00208140727825514
379904 2226 0.00208011851623479
380416 2229 0.00207870301669774
380928 2232 0.00207675457799627
381440 2235 0.00207496848244682
381952 2238 0.00207278071220241
382464 2241 0.00207054257688152
382976 2244 0.00206849274029695
383488 2247 0.00206665806613314
384000 2250 0.00206519573568337
384512 2253 0.00206388623928907
385024 2256 0.00206250460896724
385536 2259 0.00206062990785871
386048 2262 0.00205908835611083
386560 2265 0.00205786557569467
387072 2268 0.0020561392983224
387584 2271 0.00205506815884102
388096 2274 0.00205357661972782
388608 2277 0.0020519854261333
389120 2280 0.00204989375080569
389632 2283 0.00204844803571564
390144 2286 0.00204722472851801
390656 2289 0.00204553705215367
391168 2292 0.00204418283711219
391680 2295 0.00204287469070636
392192 2298 0.00204158309776407
392704 2301 0.00204075005787835
393216 2304 0.00203962617487436
393728 2307 0.00203807360990071
394240 2310 0.00203672473229883
394752 2313 0.00203513340478713
395264 2316 0.00203402693790015
395776 2319 0.00203273160728373
396288 2322 0.00203141064159809
396800 2325 0.00202944857225088
397312 2328 0.00202795545804332
397824 2331 0.00202719476177251
398336 2334 0.00202614963375505
398848 2337 0.00202477828798875
399360 2340 0.00202395085143015
399872 2343 0.0020227515066111
400384 2346 0.00202163449505476
400896 2349 0.00202087063577963
401408 2352 0.0020202646993636
401920 2355 0.0020200014446564
402432 2358 0.00201972610403077
402944 2361 0.00201952901518763
403456 2364 0.00201902109164905
403968 2367 0.00201818645216635
404480 2370 0.00201714432574815
404992 2373 0.00201674039013868
405504 2376 0.00201621799241411
406016 2379 0.00201601430368882
406528 2382 0.00201589975953878
407040 2385 0.0020154342073432
407552 2388 0.00201515087493545
408064 2391 0.00201512768578317
408576 2394 0.00201480961557869
409088 2397 0.00201440108231848
409600 2400 0.00201490480186512
410112 2403 0.00201433415096201
410624 2406 0.00201438182788706
411136 2409 0.00201462268736833
411648 2412 0.00201388007621282
412160 2415 0.00201358253598678
412672 2418 0.00201297048943638
413184 2421 0.00201260970220925
413696 2424 0.00201244025934039
414208 2427 0.00201157429716313
414720 2430 0.00201158705949285
415232 2433 0.0020114798379993
415744 2436 0.00201040725587013
416256 2439 0.00201051563843116
416768 2442 0.00201054731773587
417280 2445 0.00201020283633379
417792 2448 0.00200983791783183
418304 2451 0.00200978502323784
418816 2454 0.00200993701205942
419328 2457 0.00201018818230879
419840 2460 0.00200997243107632
420352 2463 0.00201002525825397
420864 2466 0.00201001577345893
421376 2469 0.00201044528285508
421888 2472 0.00201032822098216
422400 2475 0.00201074738910725
422912 2478 0.00201091466510065
423424 2481 0.00201085038805757
423936 2484 0.00201147886986333
424448 2487 0.00201182887802264
424960 2490 0.00201257015030023
425472 2493 0.00201290864488095
425984 2496 0.00201328422293741
426496 2499 0.0020140339170799
427008 2502 0.00201444547119873
427520 2505 0.00201471884163138
428032 2508 0.00201575711471908
428544 2511 0.00201656004925692
429056 2514 0.00201728150602567
429568 2517 0.00201771466720935
430080 2520 0.00201843731677831
430592 2523 0.00201885486607621
431104 2526 0.00201942820893316
431616 2529 0.00201993427792227
432128 2532 0.00202073198097136
432640 2535 0.00202158295457966
433152 2538 0.00202261317740665
433664 2541 0.00202338393826652
434176 2544 0.00202420639120339
434688 2547 0.00202489241987751
435200 2550 0.00202592835455834
435712 2553 0.00202662525891025
436224 2556 0.0020274607415139
436736 2559 0.00202844834492371
437248 2562 0.00202952479319765
437760 2565 0.00203060049932685
438272 2568 0.00203174504210857
438784 2571 0.00203322880121935
439296 2574 0.00203414033824079
439808 2577 0.00203531734547833
440320 2580 0.0020368374776352
440832 2583 0.00203818524259334
441344 2586 0.00203964870758817
441856 2589 0.00204081338100042
442368 2592 0.00204204334383784
442880 2595 0.00204316340947888
443392 2598 0.00204470376400689
443904 2601 0.00204600420582028
444416 2604 0.00204760164436032
444928 2607 0.00204897258625371
445440 2610 0.00205049552810231
445952 2613 0.00205185800350121
446464 2616 0.0020533036979241
446976 2619 0.00205445528508507
447488 2622 0.00205587670911823
448000 2625 0.00205739664691647
448512 2628 0.0020588732343339
449024 2631 0.00206036618108548
449536 2634 0.0020619305334104
450048 2637 0.00206344696477312
450560 2640 0.00206479364469562
451072 2643 0.00206597158419972
451584 2646 0.00206728982238211
452096 2649 0.0020685150446693
452608 2652 0.00206975549973416
453120 2655 0.00207105716994893
453632 2658 0.00207216774444565
454144 2661 0.00207369466850712
454656 2664 0.00207514066838326
455168 2667 0.00207649403218693
455680 2670 0.0020778379629094
456192 2673 0.0020793578800069
456704 2676 0.0020806432818446
457216 2679 0.00208205637043773
457728 2682 0.00208357051954878
458240 2685 0.00208505248010373
458752 2688 0.0020866348198569
459264 2691 0.0020883995641134
459776 2694 0.00209010088943804
460288 2697 0.00209176566139641
460800 2700 0.00209328408097429
461312 2703 0.00209513223799807
461824 2706 0.00209665493300166
462336 2709 0.00209816817470749
462848 2712 0.00210002786809925
463360 2715 0.00210172242411457
463872 2718 0.00210337192580485
464384 2721 0.00210476863624227
464896 2724 0.0021064470644823
465408 2727 0.00210809857052766
465920 2730 0.00210977482587784
466432 2733 0.00211160530861728
466944 2736 0.0021134546594236
467456 2739 0.00211515688028969
467968 2742 0.00211677404336647
468480 2745 0.00211854910673344
468992 2748 0.00212030287612638
469504 2751 0.00212213896734623
470016 2754 0.00212390531583
470528 2757 0.00212563564341465
471040 2760 0.00212739796231833
471552 2763 0.00212914932582949
472064 2766 0.00213089448252772
472576 2769 0.00213264896366831
473088 2772 0.00213440342123786
473600 2775 0.0021361272396695
474112 2778 0.00213787130490326
474624 2781 0.00213958301449139
475136 2784 0.00214129590145768
475648 2787 0.00214299542546379
476160 2790 0.00214467404860235
476672 2793 0.00214634756538956
477184 2796 0.00214802691947727
477696 2799 0.00214970056138302
478208 2802 0.00215136961666258
478720 2805 0.00215301214123145
479232 2808 0.00215465556664807
479744 2811 0.00215627769859636
480256 2814 0.00215789510709308
480768 2817 0.00215953971565597
481280 2820 0.0021612307905763
481792 2823 0.00216296610568693
482304 2826 0.00216473757054091
482816 2829 0.00216651132168734
483328 2832 0.00216828584801
483840 2835 0.00217006747136221
484352 2838 0.00217184882447074
484864 2841 0.00217363327179252
485376 2844 0.00217538082628373
485888 2847 0.00217708980121096
486400 2850 0.00217876153110176
486912 2853 0.00218040301090794
487424 2856 0.00218200699235746
487936 2859 0.00218358618309917
488448 2862 0.00218515277014519
488960 2865 0.00218670563395117
489472 2868 0.00218823784416914
489984 2871 0.00218974049816424
490496 2874 0.00219120388925009
491008 2877 0.00219264215416041
491520 2880 0.00219406871038201
492032 2883 0.00219550025056324
492544 2886 0.00219692567860702
493056 2889 0.00219834810250225
493568 2892 0.00219978662910588
494080 2895 0.00220123600037939
494592 2898 0.00220270494949582
495104 2901 0.00220422298293461
495616 2904 0.00220579919779103
496128 2907 0.00220743008701106
496640 2910 0.00220911075310616
497152 2913 0.00221084053996892
497664 2916 0.00221260363370526
498176 2919 0.00221437791851077
498688 2922 0.00221617255236833
499200 2925 0.00221795451884329
499712 2928 0.00221973640203787
500224 2931 0.00222151726781581
500736 2934 0.0022232826325817
501248 2937 0.00222502438481042
501760 2940 0.00222674669293985
502272 2943 0.00222843451706177
502784 2946 0.00223008238684365
503296 2949 0.00223169059620347
503808 2952 0.00223327266387363
504320 2955 0.00223482339798162
504832 2958 0.00223633332363743
505344 2961 0.00223781130019549
505856 2964 0.00223925822479627
506368 2967 0.00224067524580856
506880 2970 0.00224207854939717
507392 2973 0.00224346881931846
507904 2976 0.00224483576419802
508416 2979 0.00224618710083261
508928 2982 0.00224754954628749
509440 2985 0.0022489077575752
509952 2988 0.00225026002813235
510464 2991 0.00225161302476455
510976 2994 0.00225296666223375
511488 2997 0.00225432645931019
512000 3000 0.00225568759021287
512512 3003 0.00225705621962363
513024 3006 0.00225843171426651
513536 3009 0.00225981802087855
514048 3012 0.00226120829899244
514560 3015 0.00226260735997979
515072 3018 0.00226400608994287
515584 3021 0.00226539633046954
516096 3024 0.00226678396036743
516608 3027 0.00226816762304929
517120 3030 0.00226953977675438
517632 3033 0.00227090175012645
518144 3036 0.00227224005719025
518656 3039 0.00227355301320204
519168 3042 0.00227485032685176
519680 3045 0.00227611984323149
520192 3048 0.0022773610738238
520704 3051 0.00227859263367931
521216 3054 0.0022798093654276
521728 3057 0.00228099390099311
522240 3060 0.0022821555672347
522752 3063 0.00228331111730565
523264 3066 0.00228444976724873
523776 3069 0.00228558305866376
524288 3072 0.00228670619433526
524800 3075 0.00228782515255556
525312 3078 0.00228893308844249
525824 3081 0.00229002265545091
526336 3084 0.00229110660340352
526848 3087 0.00229217602023349
527360 3090 0.00229323451567132
527872 3093 0.00229429709117671
528384 3096 0.00229537016964778
528896 3099 0.00229645375487447
529408 3102 0.00229754082629489
529920 3105 0.00229863693474877
530432 3108 0.00229974435452824
530944 3111 0.0023008709706084
531456 3114 0.00230201348868356
531968 3117 0.00230316005201342
532480 3120 0.0023043209040709
532992 3123 0.0023054980451028
533504 3126 0.00230668587107271
534016 3129 0.00230787721871936
534528 3132 0.00230906297528352
535040 3135 0.00231025075915202
535552 3138 0.00231144113984447
536064 3141 0.00231263069451547
536576 3144 0.00231381773448142
537088 3147 0.00231499455710698
537600 3150 0.00231616346538022
538112 3153 0.00231733050473527
538624 3156 0.00231851549767915
539136 3159 0.00231969976714976
539648 3162 0.00232087187488161
540160 3165 0.0023220273181746
540672 3168 0.00232317531777139
541184 3171 0.00232431757054577
541696 3174 0.00232545001124348
542208 3177 0.00232656062049124
542720 3180 0.00232765901586724
543232 3183 0.00232874854952033
543744 3186 0.00232984111011971
544256 3189 0.00233091738076026
544768 3192 0.00233197494120736
545280 3195 0.00233302875035569
545792 3198 0.00233408188781435
546304 3201 0.00233512671083189
546816 3204 0.00233616745775689
547328 3207 0.00233721508387937
547840 3210 0.00233826848244455
548352 3213 0.00233933047514637
548864 3216 0.00234041261898121
549376 3219 0.00234150530713513
549888 3222 0.00234261288595927
550400 3225 0.00234372891446268
550912 3228 0.00234485144280423
551424 3231 0.0023459827405671
551936 3234 0.00234713000434383
552448 3237 0.00234827928390666
552960 3240 0.00234942472158834
553472 3243 0.00235056930921949
553984 3246 0.00235171736403902
554496 3249 0.00235286674670072
555008 3252 0.00235401040095449
555520 3255 0.00235514919553826
556032 3258 0.00235628079999471
556544 3261 0.00235740821716078
557056 3264 0.00235852574024112
557568 3267 0.00235962518493351
558080 3270 0.00236070653897375
558592 3273 0.00236176785736705
559104 3276 0.00236280599848041
559616 3279 0.00236382404102658
560128 3282 0.00236482843911816
560640 3285 0.00236582719591279
561152 3288 0.00236680160405387
561664 3291 0.00236775048218934
562176 3294 0.00236868210404216
562688 3297 0.00236960458327518
563200 3300 0.00237051589483105
563712 3303 0.00237141928002154
564224 3306 0.00237231297090063
564736 3309 0.00237320070649252
565248 3312 0.00237409871617965
565760 3315 0.00237499690407821
566272 3318 0.00237589260588811
566784 3321 0.0023768019588849
567296 3324 0.00237772023077309
567808 3327 0.00237865175985496
568320 3330 0.00237959674964082
568832 3333 0.00238055380854362
569344 3336 0.0023815228985479
569856 3339 0.00238250438099516
570368 3342 0.00238349115432942
570880 3345 0.00238448962853728
571392 3348 0.00238549783100872
571904 3351 0.0023865084252499
572416 3354 0.00238751298489433
572928 3357 0.0023885172074279
573440 3360 0.00238951923392971
573952 3363 0.00239052509511346
574464 3366 0.00239152609018301
574976 3369 0.00239252081496196
575488 3372 0.00239349491466368
576000 3375 0.00239445294736895
576512 3378 0.0023954012929033
577024 3381 0.00239633729339176
577536 3384 0.00239725393344634
578048 3387 0.00239815460585555
578560 3390 0.00239903791922275
579072 3393 0.00239991311122546
579584 3396 0.00240077092595904
580096 3399 0.00240160535348656
580608 3402 0.00240242109287379
581120 3405 0.00240321369307984
581632 3408 0.00240399212375863
582144 3411 0.00240476041619279
582656 3414 0.00240551991465525
583168 3417 0.00240627562270161
583680 3420 0.00240702962807128
584192 3423 0.00240778628662494
584704 3426 0.00240855170024113
585216 3429 0.00240933144305369
585728 3432 0.00241012467133204
586240 3435 0.00241093281982812
586752 3438 0.00241174735691646
587264 3441 0.00241256476211437
587776 3444 0.00241338356526889
588288 3447 0.00241420511355388
588800 3450 0.00241503433097232
589312 3453 0.00241586868956012
589824 3456 0.00241670290115817
590336 3459 0.00241753513299299
590848 3462 0.00241836333870372
591360 3465 0.00241919188985591
591872 3468 0.00242001574389295
592384 3471 0.00242082798294623
592896 3474 0.00242163340335766
593408 3477 0.00242242909633004
593920 3480 0.00242321166596879
594432 3483 0.00242397953200442
594944 3486 0.00242473175760595
595456 3489 0.00242547045238525
595968 3492 0.00242619040458692
596480 3495 0.00242688841180636
596992 3498 0.00242756188674239
597504 3501 0.00242821751469167
598016 3504 0.00242886263585794
598528 3507 0.00242949487513102
599040 3510 0.00243010183880813
599552 3513 0.00243069536062641
600064 3516 0.00243127385450288
600576 3519 0.00243184459251286
601088 3522 0.00243241115838291
601600 3525 0.00243297421418015
602112 3528 0.00243353852644027
602624 3531 0.00243410444657155
603136 3534 0.00243466786560146
603648 3537 0.00243523666286618
604160 3540 0.00243580986035855
604672 3543 0.00243638999721752
605184 3546 0.0024369845649132
605696 3549 0.002437592469924
606208 3552 0.00243821374132206
606720 3555 0.0024388494862572
607232 3558 0.00243950043603994
607744 3561 0.00244016339817216
608256 3564 0.00244083491651948
608768 3567 0.00244151192316773
609280 3570 0.00244219432236349
609792 3573 0.0024428792568463
610304 3576 0.00244356638691524
610816 3579 0.00244425099436383
611328 3582 0.00244493077619403
611840 3585 0.00244560160571208
612352 3588 0.00244626113823465
612864 3591 0.00244690822483164
613376 3594 0.00244753904191293
613888 3597 0.00244815494067943
614400 3600 0.00244875190744629
614912 3603 0.00244932974696183
615424 3606 0.00244988441429668
615936 3609 0.00245041354115184
616448 3612 0.00245091628772309
616960 3615 0.00245140602073821
617472 3618 0.00245188870377175
617984 3621 0.00245235316082108
618496 3624 0.00245280919018238
619008 3627 0.00245324907138087
619520 3630 0.00245367855122655
620032 3633 0.00245409666409997
620544 3636 0.00245450615841898
621056 3639 0.00245492098382242
621568 3642 0.00245533959912941
622080 3645 0.00245575976027069
622592 3648 0.0024561853664766
623104 3651 0.00245661656064337
623616 3654 0.00245705879711268
624128 3657 0.00245751284107028
624640 3660 0.00245797978634493
625152 3663 0.00245846428178994
625664 3666 0.00245896299039115
626176 3669 0.00245947264372208
626688 3672 0.00245998988739758
627200 3675 0.0024605131389543
627712 3678 0.00246103664839469
628224 3681 0.00246155567206712
628736 3684 0.00246206763684401
629248 3687 0.00246257955610699
629760 3690 0.00246307861681503
630272 3693 0.00246356183829999
630784 3696 0.0024640258668118
631296 3699 0.00246447358195595
631808 3702 0.00246489957047652
632320 3705 0.00246530169409624
632832 3708 0.00246567847900601
633344 3711 0.00246603442226485
633856 3714 0.00246636357534299
634368 3717 0.00246667369159873
634880 3720 0.00246696373268114
635392 3723 0.00246723125712426
635904 3726 0.00246747731010389
636416 3729 0.0024677058501994
636928 3732 0.00246792368247795
637440 3735 0.00246813249586932
637952 3738 0.00246833823777628
638464 3741 0.00246854565672548
638976 3744 0.00246874968212457
639488 3747 0.00246895311717115
640000 3750 0.00246916326943737
640512 3753 0.0024693814511203
641024 3756 0.00246960635960397
641536 3759 0.00246984190554414
642048 3762 0.00247009282428176
642560 3765 0.00247035989609757
643072 3768 0.00247064135994298
643584 3771 0.00247093974720482
644096 3774 0.00247125411150262
644608 3777 0.00247157962124964
645120 3780 0.00247191431364216
645632 3783 0.00247225879544877
646144 3786 0.00247260761750186
646656 3789 0.00247295589238357
647168 3792 0.00247329860949701
647680 3795 0.0024736346702097
648192 3798 0.00247396166042854
648704 3801 0.00247427416911259
649216 3804 0.00247457130252254
649728 3807 0.00247484704973065
650240 3810 0.0024750980274318
650752 3813 0.00247532078564307
651264 3816 0.00247551569654042
651776 3819 0.00247568281476355
652288 3822 0.00247583197626444
652800 3825 0.00247595970810872
653312 3828 0.00247606959271888
653824 3831 0.00247615708005045
654336 3834 0.00247622011602064
654848 3837 0.00247626078848728
655360 3840 0.00247628130650949
655872 3843 0.00247628660025975
656384 3846 0.00247627978269157
656896 3849 0.00247626375590658
657408 3852 0.00247624307931749
657920 3855 0.00247621971343475
658432 3858 0.00247619572779421
658944 3861 0.00247617208840776
659456 3864 0.00247615079733427
659968 3867 0.00247613664685792
660480 3870 0.00247613638261091
660992 3873 0.00247615011408959
661504 3876 0.00247618008567121
662016 3879 0.00247622384491284
662528 3882 0.00247628040165243
663040 3885 0.00247635142335934
663552 3888 0.00247643827395419
664064 3891 0.0024765362075135
664576 3894 0.00247664239086873
665088 3897 0.00247674915556844
665600 3900 0.00247676877158361
666112 3903 0.00247687009270039
666624 3906 0.00247696464076105
667136 3909 0.00247698479338025
667648 3912 0.00247702578222203
668160 3915 0.00247708517284083
668672 3918 0.00247701292807928
669184 3921 0.00247691459157826
669696 3924 0.0024768135332769
670208 3927 0.00247663622226098
670720 3930 0.00247635263595922
671232 3933 0.00247610008872919
671744 3936 0.00247579495646597
672256 3939 0.00247544751709924
672768 3942 0.00247512607850728
673280 3945 0.00247473348261402
673792 3948 0.00247443940489435
674304 3951 0.002474173605613
674816 3954 0.00247369129468584
675328 3957 0.00247330490867815
675840 3960 0.00247302444592253
676352 3963 0.00247267631532478
676864 3966 0.00247228338674621
677376 3969 0.0024719036280053
677888 3972 0.00247146163785844
678400 3975 0.00247095526105175
678912 3978 0.00247052806310298
679424 3981 0.00247020492191518
679936 3984 0.00246986598493341
680448 3987 0.00246941418971834
680960 3990 0.00246909828233594
681472 3993 0.00246881001818208
681984 3996 0.00246853179415086
682496 3999 0.00246833292742343
683008 4002 0.00246802368338087
683520 4005 0.00246771143655836
684032 4008 0.00246729246703432
684544 4011 0.00246712699444754
685056 4014 0.00246669325117016
685568 4017 0.00246620898625434
686080 4020 0.00246594085318298
686592 4023 0.00246573552435333
687104 4026 0.00246540809970544
687616 4029 0.00246511216815429
688128 4032 0.00246473639595584
688640 4035 0.00246448407671528
689152 4038 0.00246419431240776
689664 4041 0.002463714938518
690176 4044 0.002463005460583
690688 4047 0.00246256217513273
691200 4050 0.00246192422225621
691712 4053 0.00246140479489514
692224 4056 0.00246085923521801
692736 4059 0.0024601434231888
693248 4062 0.002459508121868
693760 4065 0.00245890981308802
694272 4068 0.00245822518156053
694784 4071 0.00245762990222573
695296 4074 0.00245707953938694
695808 4077 0.00245654516438058
696320 4080 0.00245594178612086
696832 4083 0.00245541518119351
697344 4086 0.00245481344945903
697856 4089 0.00245430017574407
698368 4092 0.00245386035044194
698880 4095 0.00245335638802668
699392 4098 0.00245279917833923
699904 4101 0.00245232607203751
700416 4104 0.00245188719243555
700928 4107 0.00245153097789608
701440 4110 0.00245090826722865
701952 4113 0.00245064831504418
702464 4116 0.00245027990438477
702976 4119 0.00244992193964815
703488 4122 0.00244951525594225
704000 4125 0.0024491020000207
704512 4128 0.00244858827548037
705024 4131 0.00244817086501088
705536 4134 0.00244741652034706
706048 4137 0.00244693496783719
706560 4140 0.00244639997578645
707072 4143 0.00244593994971301
707584 4146 0.00244545164308045
708096 4149 0.00244492621675129
708608 4152 0.00244438591186509
709120 4155 0.00244379161103356
709632 4158 0.00244311202241352
710144 4161 0.00244238470695967
710656 4164 0.00244169014370677
711168 4167 0.00244100962762453
711680 4170 0.00244047404636485
712192 4173 0.00243977204016718
712704 4176 0.00243898994153284
713216 4179 0.00243824542824377
713728 4182 0.00243766576667827
714240 4185 0.00243686040441057
714752 4188 0.00243611656620131
715264 4191 0.00243539883045057
715776 4194 0.0024346652220387
716288 4197 0.00243407846505134
716800 4200 0.00243340637032985
717312 4203 0.00243275465283835
717824 4206 0.00243221615278566
718336 4209 0.00243167863528921
718848 4212 0.00243105712636062
719360 4215 0.00243058193953852
719872 4218 0.00243007330470563
720384 4221 0.00242935108608777
720896 4224 0.0024286318324916
721408 4227 0.00242813494346311
721920 4230 0.00242749409082049
722432 4233 0.00242678580366009
722944 4236 0.00242604919643602
723456 4239 0.00242544112656064
723968 4242 0.00242459612063099
724480 4245 0.00242390489296839
724992 4248 0.00242331606950195
725504 4251 0.00242250432792033
726016 4254 0.00242173546847871
726528 4257 0.0024209625817757
727040 4260 0.00242015308102176
727552 4263 0.00241930507983992
728064 4266 0.0024184365145852
728576 4269 0.00241743362761294
729088 4272 0.00241644908568619
729600 4275 0.00241521774213719
730112 4278 0.00241398491136015
730624 4281 0.00241263068803958
731136 4284 0.0024114024952981
731648 4287 0.00241036600807279
732160 4290 0.0024090944361877
732672 4293 0.00240747856914969
733184 4296 0.0024063888363764
733696 4299 0.00240534315479723
734208 4302 0.0024040988291558
734720 4305 0.00240305580517598
735232 4308 0.00240217779131806
735744 4311 0.00240115520108488
736256 4314 0.00240008297178354
736768 4317 0.00239895597995931
737280 4320 0.00239777011863148
737792 4323 0.00239694088169525
738304 4326 0.00239615705609367
738816 4329 0.00239534909184334
739328 4332 0.00239433082828043
739840 4335 0.00239338510227303
740352 4338 0.00239262721514613
740864 4341 0.00239182804904646
741376 4344 0.00239104771517493
741888 4347 0.00239024680893585
742400 4350 0.00238939354321943
742912 4353 0.00238873527658837
743424 4356 0.00238795833826188
743936 4359 0.00238715819153736
744448 4362 0.00238651671318775
744960 4365 0.00238553262554685
745472 4368 0.00238449434347794
745984 4371 0.00238347562578176
746496 4374 0.00238266198842356
747008 4377 0.00238168758400426
747520 4380 0.00238054309576502
748032 4383 0.00237941693671703
748544 4386 0.00237837829906421
749056 4389 0.00237735304964977
749568 4392 0.00237627177431508
750080 4395 0.00237508713626813
750592 4398 0.0023737912692684
751104 4401 0.00237260855828358
751616 4404 0.00237166857819428
752128 4407 0.00237060400579213
752640 4410 0.00236957615994607
753152 4413 0.00236866985534479
753664 4416 0.00236772473181207
754176 4419 0.00236704424494287
754688 4422 0.00236605754642029
755200 4425 0.00236493302492478
755712 4428 0.0023642180161123
756224 4431 0.0023633691712286
756736 4434 0.00236252094061737
757248 4437 0.00236182487778546
757760 4440 0.00236114597466513
758272 4443 0.00236017485668
758784 4446 0.0023593402179311
759296 4449 0.00235832648832262
759808 4452 0.00235726871698647
760320 4455 0.00235598001078338
760832 4458 0.00235517467139092
761344 4461 0.00235394892287604
761856 4464 0.0023528078014751
762368 4467 0.0023516340250858
762880 4470 0.00235068364528946
763392 4473 0.00234952612916879
763904 4476 0.00234827359562082
764416 4479 0.00234708951867887
764928 4482 0.0023459667142821
765440 4485 0.00234476548085298
765952 4488 0.00234373994503694
766464 4491 0.00234206896166067
766976 4494 0.00234064626532673
767488 4497 0.00233925925881127
768000 4500 0.00233780082414987
768512 4503 0.00233639991992965
769024 4506 0.00233515400261915
769536 4509 0.00233379920440024
770048 4512 0.00233222853061621
770560 4515 0.00233049764058317
771072 4518 0.00232895725923898
771584 4521 0.00232728704397381
772096 4524 0.00232565208086362
772608 4527 0.00232401426656786
773120 4530 0.00232275981655466
773632 4533 0.00232126712016954
774144 4536 0.00231968219324553
774656 4539 0.00231763758952359
775168 4542 0.00231608675230628
775680 4545 0.00231416200600298
776192 4548 0.00231196145047913
776704 4551 0.00231035541216416
777216 4554 0.00230865625344067
777728 4557 0.00230674098259132
778240 4560 0.00230518497726526
778752 4563 0.00230354986487638
779264 4566 0.00230216829956786
779776 4569 0.00230048378837267
780288 4572 0.00229825362582622
780800 4575 0.0022965453655714
781312 4578 0.00229458175223116
781824 4581 0.00229266620512918
782336 4584 0.00229050407850798
782848 4587 0.00228893618807121
783360 4590 0.00228743648291728
783872 4593 0.00228589613798967
784384 4596 0.00228430078861112
784896 4599 0.00228242228818287
785408 4602 0.00228055272814475
785920 4605 0.0022785478276247
786432 4608 0.00227662046540489
786944 4611 0.00227467896623887
787456 4614 0.00227320204937862
787968 4617 0.00227150845481544
788480 4620 0.00226987891671535
788992 4623 0.00226805616772548
789504 4626 0.00226659536958687
790016 4629 0.00226514845386609
790528 4632 0.00226357193480217
791040 4635 0.00226211454734896
791552 4638 0.00226062886403707
792064 4641 0.00225941843897581
792576 4644 0.00225810094780952
793088 4647 0.00225668289804705
793600 4650 0.00225498012295671
794112 4653 0.00225397610141272
794624 4656 0.00225284925140221
795136 4659 0.00225135685474955
