# Scalar ASCII output created by CarpetIOScalar
# created on soultanakos-Inspiron-3558 by soultanakos on Oct 02 2018 at 21:16:03+0200
# parameter filename: "/home/soultanakos/simulations/H4_diff_rot_r75/output-0000/ET_Thessaloniki_PP_Hydro_RNSID_static.par"
# Build ID: build-rot_star_hydro_rnsid-soultanakos-Inspiron-3558-soultanakos-2018.10.02-19.09.34-4308
# Simulation ID: run-ET_Thessaloniki_PP_Hydro_RNSID_static-soultanakos-Inspiron-3558-soultanakos-2018.10.02-19.15.27-7307
# Run ID: run-ET_Thessaloniki_PP_Hydro_RNSID_static-soultanakos-Inspiron-3558-soultanakos-2018.10.02-19.15.27-7307
#
# ML_ADMCONSTRAINTS::H (ml_admconstraints-ml_ham)
# 1:iteration 2:time 3:data
# data columns: 3:H
0 0 -7.44552686377712e-09
512 3 -1.30223657610798e-08
1024 6 -1.81684129015265e-08
1536 9 -2.28797925769919e-08
2048 12 -2.77077735564396e-08
2560 15 -3.44698690695545e-08
3072 18 -3.4920865401553e-08
3584 21 -4.5215148241438e-08
4096 24 -4.24066533133214e-08
4608 27 -4.43318297682216e-08
5120 30 -4.8476169324281e-08
5632 33 -4.53215804476062e-08
6144 36 -5.13690163693668e-08
6656 39 -4.75394955074933e-08
7168 42 -5.371329723831e-08
7680 45 -5.32804487855182e-08
8192 48 -5.37806296652568e-08
8704 51 -5.47016790232496e-08
9216 54 -5.31582068223245e-08
9728 57 -5.41674475453261e-08
10240 60 -5.35895370934399e-08
10752 63 -5.75320062216298e-08
11264 66 -5.98979087892839e-08
11776 69 -5.90706342793821e-08
12288 72 -6.78613648480547e-08
12800 75 -6.28048486785063e-08
13312 78 -6.86012523617909e-08
13824 81 -6.75887965813609e-08
14336 84 -6.73408145402477e-08
14848 87 -7.36474628653041e-08
15360 90 -7.22705633555774e-08
15872 93 -8.94989395684621e-08
16384 96 -9.80611420032531e-08
16896 99 -1.154223931852e-07
17408 102 -1.31278503917303e-07
17920 105 -1.31941095979335e-07
18432 108 -1.36584446154858e-07
18944 111 -1.26515410448131e-07
19456 114 -1.15040658625019e-07
19968 117 -1.00809077505721e-07
20480 120 -8.64680327503831e-08
20992 123 -5.90139508807643e-08
21504 126 -2.14273208453511e-08
22016 129 3.00884304450044e-08
22528 132 9.96683349650743e-08
23040 135 1.80248102723696e-07
23552 138 2.82765320763623e-07
24064 141 3.87255030279952e-07
24576 144 4.77694499738443e-07
25088 147 5.4517610146298e-07
25600 150 5.54641985515715e-07
26112 153 5.16801346476808e-07
26624 156 4.43060437306124e-07
27136 159 3.39170700090078e-07
27648 162 2.45846814595759e-07
28160 165 1.71238222717342e-07
28672 168 1.10854377681749e-07
29184 171 5.18362319483107e-08
29696 174 -2.30430088095529e-08
30208 177 -1.20259322877115e-07
30720 180 -2.32523567399689e-07
31232 183 -3.54133139885631e-07
31744 186 -4.58178391573813e-07
32256 189 -5.52952363784648e-07
32768 192 -6.24122537562755e-07
33280 195 -6.79554681101593e-07
33792 198 -7.14053854952454e-07
34304 201 -7.40337271511744e-07
34816 204 -7.39062704511018e-07
35328 207 -7.23153168167871e-07
35840 210 -6.90438908943529e-07
36352 213 -6.25686294223639e-07
36864 216 -5.70930131597992e-07
37376 219 -4.99318704854437e-07
37888 222 -4.27448970170286e-07
38400 225 -3.53659262286369e-07
38912 228 -2.55437278946265e-07
39424 231 -1.60802145568649e-07
39936 234 -6.36380627955212e-08
40448 237 3.22997232103797e-08
40960 240 1.03166181175688e-07
41472 243 1.77875538372212e-07
41984 246 2.45802813335845e-07
42496 249 3.06206855674376e-07
43008 252 3.57592340664021e-07
43520 255 3.889682836283e-07
44032 258 4.08403861552872e-07
44544 261 4.10819262306629e-07
45056 264 3.98687727675246e-07
45568 267 3.85167406800512e-07
46080 270 3.57672918197961e-07
46592 273 3.12040254920478e-07
47104 276 2.72166367408983e-07
47616 279 2.0633612385363e-07
48128 282 1.17280288945609e-07
48640 285 8.80197333800808e-09
49152 288 -1.2404248887046e-07
49664 291 -2.61848109199115e-07
50176 294 -3.86055152934778e-07
50688 297 -5.04612181831119e-07
51200 300 -5.91080416455481e-07
51712 303 -6.59139778981307e-07
52224 306 -7.16994054691057e-07
52736 309 -7.35240258280712e-07
53248 312 -7.4677286561756e-07
53760 315 -7.13006582983167e-07
54272 318 -6.67856326461452e-07
54784 321 -5.98742000219159e-07
55296 324 -5.18831231882216e-07
55808 327 -4.39274986379081e-07
56320 330 -3.40356635739539e-07
56832 333 -2.37785570934623e-07
57344 336 -1.12574085627586e-07
57856 339 8.89100071347937e-09
58368 342 1.17827244575051e-07
58880 345 2.14316976868571e-07
59392 348 2.84982007325322e-07
59904 351 3.67283088563211e-07
60416 354 4.36370910081067e-07
60928 357 5.02153897003015e-07
61440 360 5.52803067176593e-07
61952 363 5.7360752072043e-07
62464 366 5.74819198918239e-07
62976 369 5.54251020116543e-07
63488 372 5.16224673833628e-07
64000 375 4.55374943783211e-07
64512 378 3.70732491818885e-07
65024 381 2.72334061163441e-07
65536 384 1.58735025655811e-07
66048 387 2.97104210384638e-08
66560 390 -1.19701434632072e-07
67072 393 -2.89366794401973e-07
67584 396 -4.74449398324936e-07
68096 399 -6.43817014967218e-07
68608 402 -7.81472622677499e-07
69120 405 -8.71866731646093e-07
69632 408 -8.94596096557324e-07
70144 411 -8.64522649454775e-07
70656 414 -7.99855125681289e-07
71168 417 -7.20313486179996e-07
71680 420 -6.80999387698654e-07
72192 423 -6.84120124290889e-07
72704 426 -7.35617661007681e-07
73216 429 -8.3097331065091e-07
73728 432 -9.0050515789823e-07
74240 435 -9.33122117208882e-07
74752 438 -8.83063310803652e-07
75264 441 -7.57358715393876e-07
75776 444 -5.85390698500699e-07
76288 447 -3.86157865309641e-07
76800 450 -2.12675746513109e-07
77312 453 -6.47911346228869e-08
77824 456 3.7127192085377e-08
78336 459 1.24403600461028e-07
78848 462 2.22590964341748e-07
79360 465 3.42287898545686e-07
79872 468 4.82480239271849e-07
80384 471 6.05956049283973e-07
80896 474 6.92107415312751e-07
81408 477 7.25556774235229e-07
81920 480 7.02057492562878e-07
82432 483 6.47268749632422e-07
82944 486 5.76786782037594e-07
83456 489 5.1641179851778e-07
83968 492 4.55160190142701e-07
84480 495 3.87237327347884e-07
84992 498 2.94298322967414e-07
85504 501 1.69570820626717e-07
86016 504 3.02868323087662e-08
86528 507 -1.30297376776957e-07
87040 510 -2.79710057024975e-07
87552 513 -4.26089411991378e-07
88064 516 -5.59699406092759e-07
88576 519 -6.8353509870533e-07
89088 522 -8.04066463943564e-07
89600 525 -9.17853883623189e-07
90112 528 -1.01052747700751e-06
90624 531 -1.07159974337016e-06
91136 534 -1.08491802234625e-06
91648 537 -1.05232867132041e-06
92160 540 -9.8442438171073e-07
92672 543 -8.93922234114685e-07
93184 546 -7.89800900210127e-07
93696 549 -6.61692370927487e-07
94208 552 -5.19427828706163e-07
94720 555 -3.53137029890883e-07
95232 558 -1.93036142613866e-07
95744 561 -3.69380572246156e-08
96256 564 1.30339118770538e-07
96768 567 2.94044117911615e-07
97280 570 4.59471975505153e-07
97792 573 5.93568033150818e-07
98304 576 6.9061176597666e-07
98816 579 7.41130622452275e-07
99328 582 7.50262019286982e-07
99840 585 7.40468384088113e-07
100352 588 6.9835532717002e-07
100864 591 6.4128522506448e-07
101376 594 5.54126114828299e-07
101888 597 4.34541790461374e-07
102400 600 3.0354363055263e-07
102912 603 1.49068607258113e-07
103424 606 -1.51551259967553e-08
103936 609 -1.83981082941053e-07
104448 612 -3.4777975744315e-07
104960 615 -5.0478058316619e-07
105472 618 -6.43009902563331e-07
105984 621 -7.64723471399263e-07
106496 624 -8.75333665001704e-07
107008 627 -9.52651937145017e-07
107520 630 -1.00734487558465e-06
108032 633 -1.02762203888488e-06
108544 636 -1.02417978854932e-06
109056 639 -1.00816246739717e-06
109568 642 -9.77128851263704e-07
110080 645 -9.37946455261003e-07
110592 648 -8.77874635896593e-07
111104 651 -7.95910684084298e-07
111616 654 -7.11551511483715e-07
112128 657 -6.38646816176723e-07
112640 660 -5.91347281329611e-07
113152 663 -5.58861552966902e-07
113664 666 -5.07242607504475e-07
114176 669 -4.13802276114864e-07
114688 672 -2.49011562963684e-07
115200 675 -3.07473486960428e-08
115712 678 2.15058968261563e-07
116224 681 4.5471984920214e-07
116736 684 6.42184153446451e-07
117248 687 7.66662554329874e-07
117760 690 8.14788715585809e-07
118272 693 7.95132533213687e-07
118784 696 7.18695468423852e-07
119296 699 6.13677532346084e-07
119808 702 5.1552576929093e-07
120320 705 4.41261021275997e-07
120832 708 4.01416680656997e-07
121344 711 3.63601623389712e-07
121856 714 2.95332631355488e-07
122368 717 1.60710693952824e-07
122880 720 -4.45665265905948e-08
123392 723 -2.70976560960878e-07
123904 726 -4.76398490098683e-07
124416 729 -6.13565120736616e-07
124928 732 -6.77016172241842e-07
125440 735 -6.86234589029353e-07
125952 738 -6.79544137898339e-07
126464 741 -6.84983070229528e-07
126976 744 -7.10250129750518e-07
127488 747 -7.60483851336758e-07
128000 750 -8.00580025931812e-07
128512 753 -8.15163105734715e-07
129024 756 -7.84741370949298e-07
129536 759 -7.07169117877071e-07
130048 762 -6.08271276559079e-07
130560 765 -5.0915801817786e-07
131072 768 -4.2833988548764e-07
131584 771 -3.54067593940087e-07
132096 774 -2.66366141638621e-07
132608 777 -1.48656623525126e-07
133120 780 3.88357694119988e-09
133632 783 1.6123880356354e-07
134144 786 2.93604518691187e-07
134656 789 3.80256188564603e-07
135168 792 4.07712311234547e-07
135680 795 4.08889852517932e-07
136192 798 3.98352929829875e-07
136704 801 3.96040874021055e-07
137216 804 4.05927961941723e-07
137728 807 4.05337249868503e-07
138240 810 3.77221712076035e-07
138752 813 3.08244577239156e-07
139264 816 2.07260587805025e-07
139776 819 9.37943214737782e-08
140288 822 -1.43141904673622e-08
140800 825 -1.14698343619235e-07
141312 828 -2.31954642893293e-07
141824 831 -3.7273832890993e-07
142336 834 -5.34673029446351e-07
142848 837 -6.96738815562837e-07
143360 840 -8.24866754545822e-07
143872 843 -9.12693736386542e-07
144384 846 -9.62076652546261e-07
144896 849 -1.00064869990087e-06
145408 852 -1.02881938630398e-06
145920 855 -1.05031676409455e-06
146432 858 -1.04879951668147e-06
146944 861 -1.00559454598624e-06
147456 864 -9.26187715837782e-07
147968 867 -8.16219812508037e-07
148480 870 -6.93383574572842e-07
148992 873 -5.54825427234993e-07
149504 876 -4.05765470691186e-07
150016 879 -2.56185317474416e-07
150528 882 -1.10945999828121e-07
151040 885 1.95134534162481e-08
151552 888 1.34582960420466e-07
152064 891 2.33048823478949e-07
152576 894 3.17562017797204e-07
153088 897 3.92563152665382e-07
153600 900 4.60001862790026e-07
154112 903 5.28190079918361e-07
154624 906 5.88306046772123e-07
155136 909 6.34610759580172e-07
155648 912 6.68510276869667e-07
156160 915 6.72346579596612e-07
156672 918 6.46983479077963e-07
157184 921 5.85051713279706e-07
157696 924 4.83584768250916e-07
158208 927 3.56165548230778e-07
158720 930 2.15243249291871e-07
159232 933 6.85281666786375e-08
159744 936 -8.07814863737377e-08
160256 939 -2.30838994613367e-07
160768 942 -3.76056401540768e-07
161280 945 -5.06102410919752e-07
161792 948 -6.04263639899747e-07
162304 951 -6.79521254824764e-07
162816 954 -7.47223270462422e-07
163328 957 -8.26965764049261e-07
163840 960 -9.17053945855477e-07
164352 963 -9.81916482443419e-07
164864 966 -1.00725828141085e-06
165376 969 -9.66005692224359e-07
165888 972 -8.79320849867743e-07
166400 975 -7.65903865509771e-07
166912 978 -6.42714657741604e-07
167424 981 -5.21690935770056e-07
167936 984 -3.88864077532665e-07
168448 987 -2.56856569732452e-07
168960 990 -1.23668759803507e-07
169472 993 -2.8980735483885e-10
169984 996 1.13778732831658e-07
170496 999 2.18879638377364e-07
171008 1002 3.10695219112567e-07
171520 1005 3.93351985776702e-07
172032 1008 4.47905683823247e-07
172544 1011 4.73634241663144e-07
173056 1014 4.67026783387875e-07
173568 1017 4.26455719940251e-07
174080 1020 3.76769785871694e-07
174592 1023 3.23224257724713e-07
175104 1026 2.78120825154603e-07
175616 1029 2.33691695830155e-07
176128 1032 1.5660947843368e-07
176640 1035 3.88863437527083e-08
177152 1038 -1.20629940127048e-07
177664 1041 -2.90114779323047e-07
178176 1044 -4.30016829579268e-07
178688 1047 -5.23944305337242e-07
179200 1050 -5.73807027930316e-07
179712 1053 -6.07745682972182e-07
180224 1056 -6.48487714520493e-07
180736 1059 -7.05173165175189e-07
181248 1062 -7.78264981634875e-07
181760 1065 -8.48004354335366e-07
182272 1068 -9.04949252247522e-07
182784 1071 -9.30711734822763e-07
183296 1074 -9.21304617305748e-07
183808 1077 -8.7749517042275e-07
184320 1080 -8.02403035215107e-07
184832 1083 -7.14572468032732e-07
185344 1086 -6.10682636633686e-07
185856 1089 -4.96352027362975e-07
186368 1092 -3.6371670965905e-07
186880 1095 -2.14763327057455e-07
187392 1098 -5.6262618801245e-08
187904 1101 9.81909797647302e-08
188416 1104 2.29853056228936e-07
188928 1107 3.41566453184536e-07
189440 1110 4.2845466500686e-07
189952 1113 5.02306954974219e-07
190464 1116 5.69138467252286e-07
190976 1119 6.19874325828229e-07
191488 1122 6.52812071264672e-07
192000 1125 6.57225662120326e-07
192512 1128 6.37973751311272e-07
193024 1131 6.06226140159267e-07
193536 1134 5.59766079483518e-07
194048 1137 5.07927122272771e-07
194560 1140 4.45487668001368e-07
195072 1143 3.57192069295735e-07
195584 1146 2.34087142973721e-07
196096 1149 7.81732300416297e-08
196608 1152 -1.04641154748873e-07
197120 1155 -2.91520100125684e-07
197632 1158 -4.5839755702093e-07
198144 1161 -6.02476031132747e-07
198656 1164 -7.14718702207879e-07
199168 1167 -8.0318549805199e-07
199680 1170 -8.79062424854084e-07
200192 1173 -9.31078196979371e-07
200704 1176 -9.60453276732656e-07
201216 1179 -9.62881658203292e-07
201728 1182 -9.32747484762788e-07
202240 1185 -8.91396915979908e-07
202752 1188 -8.40688000947215e-07
203264 1191 -7.83339522032086e-07
203776 1194 -7.05802082647556e-07
204288 1197 -5.8365548404463e-07
204800 1200 -4.13157214169534e-07
205312 1203 -2.0915919941804e-07
205824 1206 -2.05793421439245e-08
206336 1209 1.2341661261987e-07
206848 1212 2.17861211539362e-07
207360 1215 2.90476771030269e-07
207872 1218 3.7521001467421e-07
208384 1221 4.74677470978578e-07
208896 1224 5.73548396403434e-07
209408 1227 6.2903264588027e-07
209920 1230 6.31133473734498e-07
210432 1233 5.93027286075885e-07
210944 1236 5.30119164470454e-07
211456 1239 4.67630800912852e-07
211968 1242 3.98404767393144e-07
212480 1245 3.09946997935411e-07
212992 1248 1.94015434369448e-07
213504 1251 5.46553043976499e-08
214016 1254 -9.36415673645448e-08
214528 1257 -2.35035920929774e-07
215040 1260 -3.56544332395019e-07
215552 1263 -4.66984340753327e-07
216064 1266 -5.69433112166231e-07
216576 1269 -6.6852557568339e-07
217088 1272 -7.65695310258757e-07
217600 1275 -8.49832393056494e-07
218112 1278 -9.19113273179794e-07
218624 1281 -9.66985469552255e-07
219136 1284 -9.83398375407323e-07
219648 1287 -9.65717014468595e-07
220160 1290 -9.14717083698312e-07
220672 1293 -8.38545495884174e-07
221184 1296 -7.56006482927671e-07
221696 1299 -6.74111718313152e-07
222208 1302 -5.89937539899609e-07
222720 1305 -4.88817425066436e-07
223232 1308 -3.67695363875189e-07
223744 1311 -2.28325300522157e-07
224256 1314 -8.24190620720865e-08
224768 1317 6.53037751449301e-08
225280 1320 2.22119221934053e-07
225792 1323 3.82195419255124e-07
226304 1326 5.47052702559823e-07
226816 1329 6.9422527154061e-07
227328 1332 8.02719676536086e-07
227840 1335 8.62535694598024e-07
228352 1338 8.67711138493942e-07
228864 1341 8.40252368644315e-07
229376 1344 8.03688064120261e-07
229888 1347 7.78749388061458e-07
230400 1350 7.59202023828257e-07
230912 1353 7.18680869587098e-07
231424 1356 6.31664363697991e-07
231936 1359 4.8905039275706e-07
232448 1362 3.11861914784434e-07
232960 1365 1.26021003432572e-07
233472 1368 -4.77059224814798e-08
233984 1371 -2.05924586982282e-07
234496 1374 -3.57190645679985e-07
235008 1377 -5.08984033101884e-07
235520 1380 -6.69369544286101e-07
236032 1383 -8.28335999468737e-07
236544 1386 -9.69746944391878e-07
237056 1389 -1.07563458011092e-06
237568 1392 -1.1400142376628e-06
238080 1395 -1.16519392221548e-06
238592 1398 -1.15834586582995e-06
239104 1401 -1.1226165286e-06
239616 1404 -1.04731874141598e-06
240128 1407 -9.27196737444508e-07
240640 1410 -7.71102868490247e-07
241152 1413 -5.93580199035198e-07
241664 1416 -4.18118680897237e-07
242176 1419 -2.56741296281065e-07
242688 1422 -1.02364990818532e-07
243200 1425 4.91956755482777e-08
243712 1428 2.05528178768687e-07
244224 1431 3.52829709500181e-07
244736 1434 4.79073594858486e-07
245248 1437 5.78938138011458e-07
245760 1440 6.48779457558122e-07
246272 1443 6.99877766373453e-07
246784 1446 7.18734806074908e-07
247296 1449 6.98111347441919e-07
247808 1452 6.40992719900702e-07
248320 1455 5.57479755287244e-07
248832 1458 4.7164601740206e-07
249344 1461 3.9891819616816e-07
249856 1464 3.39561305876569e-07
250368 1467 2.7008076507494e-07
250880 1470 1.77521686652834e-07
251392 1473 5.5140091047929e-08
251904 1476 -1.02017105175345e-07
252416 1479 -2.8091971201439e-07
252928 1482 -4.71135836220142e-07
253440 1485 -6.51190691475947e-07
253952 1488 -8.025132136907e-07
254464 1491 -9.18089542156745e-07
254976 1494 -9.99102220988825e-07
255488 1497 -1.05554146673863e-06
256000 1500 -1.08974421268156e-06
256512 1503 -1.0964360508521e-06
257024 1506 -1.06904021473906e-06
257536 1509 -1.01002225141876e-06
258048 1512 -9.19945521321055e-07
258560 1515 -8.00153166162466e-07
259072 1518 -6.48567627179676e-07
259584 1521 -4.56976151462174e-07
260096 1524 -2.34233473979632e-07
260608 1527 -2.20549611308613e-09
261120 1530 2.15424043384667e-07
261632 1533 3.99264741197623e-07
262144 1536 5.52334472410201e-07
262656 1539 6.82423266096411e-07
263168 1542 7.94609612391224e-07
263680 1545 8.93906451805414e-07
264192 1548 9.69292521990261e-07
264704 1551 1.02554938993834e-06
265216 1554 1.06329515075118e-06
265728 1557 1.07424525665873e-06
266240 1560 1.05514700687662e-06
266752 1563 9.80708898995375e-07
267264 1566 8.44103045738775e-07
267776 1569 6.56351512987827e-07
268288 1572 4.3511813403569e-07
268800 1575 2.22692622279415e-07
269312 1578 4.24657082478732e-08
269824 1581 -1.05728407299407e-07
270336 1584 -2.34292841171052e-07
270848 1587 -3.68071107228759e-07
271360 1590 -5.2675701960125e-07
271872 1593 -7.05357234443432e-07
272384 1596 -8.85530277040295e-07
272896 1599 -1.04599232871602e-06
273408 1602 -1.15798445952006e-06
273920 1605 -1.2168650995074e-06
274432 1608 -1.22264098518288e-06
274944 1611 -1.18576693346732e-06
275456 1614 -1.12983574830355e-06
275968 1617 -1.05868758840416e-06
276480 1620 -9.78022742954515e-07
276992 1623 -8.87043064661719e-07
277504 1626 -7.67028575270835e-07
278016 1629 -6.116041168562e-07
278528 1632 -4.26709734878122e-07
279040 1635 -2.15109980023795e-07
279552 1638 5.82582979161362e-09
280064 1641 2.19302031788492e-07
280576 1644 4.1580688423019e-07
281088 1647 5.75293309710179e-07
281600 1650 6.88416790247737e-07
282112 1653 7.54675737414785e-07
282624 1656 7.8162930526182e-07
283136 1659 7.92299802189557e-07
283648 1662 7.98845316694023e-07
284160 1665 8.0051433891612e-07
284672 1668 7.9264522500675e-07
285184 1671 7.58408863045853e-07
285696 1674 6.91902744972997e-07
286208 1677 5.97960601825624e-07
286720 1680 4.74744725110984e-07
287232 1683 3.26593748420547e-07
287744 1686 1.59283528863889e-07
288256 1689 -2.09644224871436e-08
288768 1692 -1.96325362548194e-07
289280 1695 -3.51219827903526e-07
289792 1698 -4.84308986962691e-07
290304 1701 -6.01073579489777e-07
290816 1704 -7.02948995939411e-07
291328 1707 -7.98892747083614e-07
291840 1710 -8.87125277509733e-07
292352 1713 -9.62542677982124e-07
292864 1716 -1.02468156783662e-06
293376 1719 -1.06368996192347e-06
293888 1722 -1.07079818117022e-06
294400 1725 -1.03252005725624e-06
294912 1728 -9.49151560192151e-07
295424 1731 -8.28787884100067e-07
295936 1734 -6.79049794542398e-07
296448 1737 -5.10305519220869e-07
296960 1740 -3.25134644423939e-07
297472 1743 -1.27877413593932e-07
297984 1746 6.87552579254879e-08
298496 1749 2.49032226821631e-07
299008 1752 4.06996475576e-07
299520 1755 5.41180685117533e-07
300032 1758 6.63399491872962e-07
300544 1761 7.94843779069938e-07
301056 1764 9.4296320170748e-07
301568 1767 1.0933641180134e-06
302080 1770 1.2136296378042e-06
302592 1773 1.26791606575981e-06
303104 1776 1.24316412057965e-06
303616 1779 1.15381112229076e-06
304128 1782 1.02719264356093e-06
304640 1785 8.86423246266361e-07
305152 1788 7.32385502522289e-07
305664 1791 5.54398908722476e-07
306176 1794 3.49507513893572e-07
306688 1797 1.20987418524425e-07
307200 1800 -1.18168437354293e-07
307712 1803 -3.53614764495163e-07
308224 1806 -5.81984843881545e-07
308736 1809 -8.05312504720612e-07
309248 1812 -1.01657363526385e-06
309760 1815 -1.19774737378769e-06
310272 1818 -1.32821973705797e-06
310784 1821 -1.38635277387259e-06
311296 1824 -1.3770128270942e-06
311808 1827 -1.32431721870799e-06
312320 1830 -1.25854002282673e-06
312832 1833 -1.20232474565844e-06
313344 1836 -1.14629415481645e-06
313856 1839 -1.06836283198874e-06
314368 1842 -9.40126853132634e-07
314880 1845 -7.4319105416987e-07
315392 1848 -4.85959699191207e-07
315904 1851 -1.95800674939749e-07
316416 1854 9.27639995125446e-08
316928 1857 3.43228506582387e-07
317440 1860 5.34777057654111e-07
317952 1863 6.67528373246711e-07
318464 1866 7.54839589081514e-07
318976 1869 8.26620308498735e-07
319488 1872 9.06626151327015e-07
320000 1875 9.98310581166999e-07
320512 1878 1.08764578192739e-06
321024 1881 1.13472005776038e-06
321536 1884 1.1062616774013e-06
322048 1887 9.96492636117718e-07
322560 1890 8.18318533360641e-07
323072 1893 6.11980651749935e-07
323584 1896 4.18766737294996e-07
324096 1899 2.54252503135244e-07
324608 1902 1.16780276215063e-07
325120 1905 -1.23815217817097e-08
325632 1908 -1.53360863740486e-07
326144 1911 -3.06958441850626e-07
326656 1914 -4.70560455887661e-07
327168 1917 -6.37754128318908e-07
327680 1920 -7.99118269471005e-07
328192 1923 -9.46673369618877e-07
328704 1926 -1.06785306818724e-06
329216 1929 -1.14930909289638e-06
329728 1932 -1.18436932241189e-06
330240 1935 -1.17323863820417e-06
330752 1938 -1.12224590021803e-06
331264 1941 -1.04391814923326e-06
331776 1944 -9.37476359203131e-07
332288 1947 -7.95297089203339e-07
332800 1950 -6.10932362066226e-07
333312 1953 -3.86169019451202e-07
333824 1956 -1.38061821257563e-07
334336 1959 1.05665681414109e-07
334848 1962 3.20398058532639e-07
335360 1965 4.98061890273693e-07
335872 1968 6.39367077065596e-07
336384 1971 7.57474214556934e-07
336896 1974 8.63903099109577e-07
337408 1977 9.64974356259179e-07
337920 1980 1.06370617893803e-06
338432 1983 1.1469815304689e-06
338944 1986 1.19791727960334e-06
339456 1989 1.1975017623229e-06
339968 1992 1.13385047000477e-06
340480 1995 1.01947055433412e-06
340992 1998 8.76280728628385e-07
341504 2001 7.27229955284651e-07
342016 2004 5.84428960174656e-07
342528 2007 4.39212150258973e-07
343040 2010 2.71786960130804e-07
343552 2013 7.15733278418376e-08
344064 2016 -1.60875677522708e-07
344576 2019 -4.14667962221671e-07
345088 2022 -6.61969738974544e-07
345600 2025 -8.76027781053495e-07
346112 2028 -1.03928840183993e-06
346624 2031 -1.14627740333062e-06
347136 2034 -1.20932834246922e-06
347648 2037 -1.25005989021454e-06
348160 2040 -1.28299550382141e-06
348672 2043 -1.3066056639029e-06
349184 2046 -1.30700193300251e-06
349696 2049 -1.27007148429853e-06
350208 2052 -1.19304728974047e-06
350720 2055 -1.07883186718862e-06
351232 2058 -9.3277968572867e-07
351744 2061 -7.55884738640351e-07
352256 2064 -5.4549868259803e-07
352768 2067 -3.09328939474691e-07
353280 2070 -6.75104981891178e-08
353792 2073 1.5944282237024e-07
354304 2076 3.54121699457684e-07
354816 2079 5.11390076053988e-07
355328 2082 6.44398532915393e-07
355840 2085 7.65859053588634e-07
356352 2088 8.86092385431214e-07
356864 2091 1.00558261133479e-06
357376 2094 1.11282698687374e-06
357888 2097 1.19072345839495e-06
358400 2100 1.22380560067331e-06
358912 2103 1.20658990780757e-06
359424 2106 1.13776769625997e-06
359936 2109 1.02910899759384e-06
360448 2112 8.96699493998972e-07
360960 2115 7.50615727418164e-07
361472 2118 5.94149640118712e-07
361984 2121 4.09562425803964e-07
362496 2124 1.81265368442525e-07
363008 2127 -8.7667665379488e-08
363520 2130 -3.75711964073241e-07
364032 2133 -6.39473613653887e-07
364544 2136 -8.40707490155384e-07
365056 2139 -9.65954901944883e-07
365568 2142 -1.02680085593163e-06
366080 2145 -1.05384858964065e-06
366592 2148 -1.07936124754744e-06
367104 2151 -1.12059955800058e-06
367616 2154 -1.17502161965505e-06
368128 2157 -1.21863212811537e-06
368640 2160 -1.22176805689745e-06
369152 2163 -1.16624204021217e-06
369664 2166 -1.04381248102621e-06
370176 2169 -8.59867222337015e-07
370688 2172 -6.31727162068541e-07
371200 2175 -3.73249583201741e-07
371712 2178 -9.99739182672885e-08
372224 2181 1.72942333678465e-07
372736 2184 4.40743796130696e-07
373248 2187 6.95016474698498e-07
373760 2190 9.28100897691122e-07
374272 2193 1.13350440080902e-06
374784 2196 1.30149766592596e-06
375296 2199 1.42408485900136e-06
375808 2202 1.49325053891619e-06
376320 2205 1.50003782983397e-06
376832 2208 1.44003660312486e-06
377344 2211 1.31967800538965e-06
377856 2214 1.15480414007846e-06
378368 2217 9.66308167703527e-07
378880 2220 7.69260865787769e-07
379392 2223 5.64672779278537e-07
379904 2226 3.42430228448088e-07
380416 2229 8.94840339332665e-08
380928 2232 -1.94784916817231e-07
381440 2235 -4.90228680371606e-07
381952 2238 -7.64456796904926e-07
382464 2241 -9.87274292391409e-07
382976 2244 -1.14917058810205e-06
383488 2247 -1.26028071119333e-06
384000 2250 -1.34283082737065e-06
384512 2253 -1.41145564935091e-06
385024 2256 -1.45718083579036e-06
385536 2259 -1.46647365704703e-06
386048 2262 -1.43099440534869e-06
386560 2265 -1.35209809711274e-06
387072 2268 -1.24308827532222e-06
387584 2271 -1.11246602449048e-06
388096 2274 -9.54620931730464e-07
388608 2277 -7.61170029080788e-07
389120 2280 -5.35748500649666e-07
389632 2283 -2.94931617222675e-07
390144 2286 -5.95266723829998e-08
390656 2289 1.610146051219e-07
391168 2292 3.77069954562598e-07
391680 2295 6.02783758251656e-07
392192 2298 8.35812479081185e-07
392704 2301 1.0506449374063e-06
393216 2304 1.21359834037836e-06
393728 2307 1.30967428474631e-06
394240 2310 1.35192185023909e-06
394752 2313 1.36705105168436e-06
395264 2316 1.37290499274869e-06
395776 2319 1.36605914785962e-06
396288 2322 1.3226377123459e-06
396800 2325 1.21568034015417e-06
397312 2328 1.03538883441753e-06
397824 2331 7.92074149050133e-07
398336 2334 5.11521861919314e-07
398848 2337 2.23465521377519e-07
399360 2340 -5.1546629886189e-08
399872 2343 -2.98949580341174e-07
400384 2346 -5.12901918163792e-07
400896 2349 -6.96520531839632e-07
401408 2352 -8.58937773598396e-07
401920 2355 -1.01193561847153e-06
402432 2358 -1.15653068294145e-06
402944 2361 -1.28159945182713e-06
403456 2364 -1.36645213659299e-06
403968 2367 -1.39532737131655e-06
404480 2370 -1.36572216906003e-06
404992 2373 -1.28446782610418e-06
405504 2376 -1.16200987070079e-06
406016 2379 -1.00550546182095e-06
406528 2382 -8.22159834290666e-07
407040 2385 -6.20304715671298e-07
407552 2388 -4.13527620570506e-07
408064 2391 -2.18807730078085e-07
408576 2394 -4.14294707411024e-08
409088 2397 1.26161147223511e-07
409600 2400 2.99545504248585e-07
410112 2403 4.95319741170542e-07
410624 2406 7.17263677541677e-07
411136 2409 9.53559416817812e-07
411648 2412 1.17770888891127e-06
412160 2415 1.3607320995227e-06
412672 2418 1.47881352293398e-06
413184 2421 1.51943871808334e-06
413696 2424 1.48901787352851e-06
414208 2427 1.40183434544818e-06
414720 2430 1.27746789518431e-06
415232 2433 1.13451287352959e-06
415744 2436 9.79337724112785e-07
416256 2439 8.05149226220862e-07
416768 2442 5.96988352083492e-07
417280 2445 3.45193948794454e-07
417792 2448 5.29621161430835e-08
418304 2451 -2.63713151790548e-07
418816 2454 -5.81671880699918e-07
419328 2457 -8.78137879523949e-07
419840 2460 -1.131753824583e-06
420352 2463 -1.33110122817211e-06
420864 2466 -1.476476502675e-06
421376 2469 -1.57651794839151e-06
421888 2472 -1.64706274379031e-06
422400 2475 -1.69541635146962e-06
422912 2478 -1.71076788695531e-06
423424 2481 -1.67889125839456e-06
423936 2484 -1.59127668731339e-06
424448 2487 -1.44426495417854e-06
424960 2490 -1.24551737681836e-06
425472 2493 -1.00904873637878e-06
425984 2496 -7.46248213914981e-07
426496 2499 -4.690353172888e-07
427008 2502 -1.86628887588324e-07
427520 2505 9.91658556208456e-08
428032 2508 3.87187283245559e-07
428544 2511 6.71312007018146e-07
429056 2514 9.39068515644369e-07
429568 2517 1.17519803041124e-06
430080 2520 1.36865884658578e-06
430592 2523 1.51598033710286e-06
431104 2526 1.61976953893876e-06
431616 2529 1.68285329904266e-06
432128 2532 1.70519510966873e-06
432640 2535 1.68125098383568e-06
433152 2538 1.60327635793745e-06
433664 2541 1.46509677055477e-06
434176 2544 1.26640306894301e-06
434688 2547 1.016993595522e-06
435200 2550 7.32357825944365e-07
435712 2553 4.30964230624257e-07
436224 2556 1.30758479919348e-07
436736 2559 -1.56593900157417e-07
437248 2562 -4.2616022523254e-07
437760 2565 -6.79364384457215e-07
438272 2568 -9.18624496325656e-07
438784 2571 -1.14298586061288e-06
439296 2574 -1.34077042957193e-06
439808 2577 -1.49287051864423e-06
440320 2580 -1.58691706591788e-06
440832 2583 -1.61738817151967e-06
441344 2586 -1.59477871424036e-06
441856 2589 -1.53459852755032e-06
442368 2592 -1.43998440490724e-06
442880 2595 -1.30956656525047e-06
443392 2598 -1.13399798518525e-06
443904 2601 -9.07119333616821e-07
444416 2604 -6.40856554304623e-07
444928 2607 -3.52074320712327e-07
445440 2610 -5.80635819852691e-08
445952 2613 2.27978020376237e-07
446464 2616 5.036096097313e-07
446976 2619 7.61848110403034e-07
447488 2622 9.86464017346211e-07
448000 2625 1.16175183762537e-06
448512 2628 1.27935788632534e-06
449024 2631 1.35159702910485e-06
449536 2634 1.40807381228245e-06
450048 2637 1.46519714637912e-06
450560 2640 1.51493026481248e-06
451072 2643 1.52629067918047e-06
451584 2646 1.45854460495598e-06
452096 2649 1.29595865752059e-06
452608 2652 1.05557746255259e-06
453120 2655 7.6949406372145e-07
453632 2658 4.69814444624359e-07
454144 2661 1.71881679646456e-07
454656 2664 -1.25621717705381e-07
455168 2667 -4.19345192810996e-07
455680 2670 -6.98671219388639e-07
456192 2673 -9.54765463027739e-07
456704 2676 -1.18168303948104e-06
457216 2679 -1.38241312795442e-06
457728 2682 -1.55982141716017e-06
458240 2685 -1.70212388306558e-06
458752 2688 -1.79379802138373e-06
459264 2691 -1.82251007445648e-06
459776 2694 -1.78212330156812e-06
460288 2697 -1.67903211575461e-06
460800 2700 -1.52198411233378e-06
461312 2703 -1.31695515641048e-06
461824 2706 -1.07510177989905e-06
462336 2709 -8.14629531894116e-07
462848 2712 -5.55752855015082e-07
463360 2715 -3.1499610289036e-07
463872 2718 -9.25418680757048e-08
464384 2721 1.30708545579863e-07
464896 2724 3.7572561964663e-07
465408 2727 6.51931354532276e-07
465920 2730 9.48492820742467e-07
466432 2733 1.23405684677731e-06
466944 2736 1.47616946892063e-06
467456 2739 1.65473223424891e-06
467968 2742 1.76490610772271e-06
468480 2745 1.8147912652437e-06
468992 2748 1.81353383098541e-06
469504 2751 1.76451382376628e-06
470016 2754 1.66483557673792e-06
470528 2757 1.51064908840374e-06
471040 2760 1.30313724357008e-06
471552 2763 1.04940939620835e-06
472064 2766 7.62924025345065e-07
472576 2769 4.62325773016561e-07
473088 2772 1.62837719617782e-07
473600 2775 -1.32137723158589e-07
474112 2778 -4.24891144875431e-07
474624 2781 -7.13660967553909e-07
475136 2784 -9.8961396011524e-07
475648 2787 -1.23316649567674e-06
476160 2790 -1.42430662975726e-06
476672 2793 -1.56010620918928e-06
477184 2796 -1.64882959859238e-06
477696 2799 -1.70277248555096e-06
478208 2802 -1.73004262243814e-06
478720 2805 -1.72262987914677e-06
479232 2808 -1.66630026571661e-06
479744 2811 -1.55512822870217e-06
480256 2814 -1.39290052929863e-06
480768 2817 -1.19012249394887e-06
481280 2820 -9.54596746640481e-07
481792 2823 -6.81229214500398e-07
482304 2826 -3.64101919903735e-07
482816 2829 -1.09972688027461e-08
483328 2832 3.54707498372075e-07
483840 2835 6.96744846100711e-07
484352 2838 9.8707169076179e-07
484864 2841 1.22161172774898e-06
485376 2844 1.40919319452303e-06
485888 2847 1.56410431102553e-06
486400 2850 1.69206057763301e-06
486912 2853 1.77900750626731e-06
487424 2856 1.8088752657655e-06
487936 2859 1.76845522494274e-06
488448 2862 1.64765942697419e-06
488960 2865 1.45310785039545e-06
489472 2868 1.2009665884205e-06
489984 2871 9.09833412275561e-07
490496 2874 6.04240256739735e-07
491008 2877 3.03450875728875e-07
491520 2880 1.44082430013159e-08
492032 2883 -2.64948939040898e-07
492544 2886 -5.43576248559268e-07
493056 2889 -8.26550226402187e-07
493568 2892 -1.10819249928113e-06
494080 2895 -1.37816851112929e-06
494592 2898 -1.61955721216372e-06
495104 2901 -1.81519273901787e-06
495616 2904 -1.94994371798392e-06
496128 2907 -2.00451383777595e-06
496640 2910 -1.97300766132713e-06
497152 2913 -1.86670398786395e-06
497664 2916 -1.70236882647781e-06
498176 2919 -1.50163346276166e-06
498688 2922 -1.27687110381052e-06
499200 2925 -1.02662732174274e-06
499712 2928 -7.52716867682591e-07
500224 2931 -4.61187897166037e-07
500736 2934 -1.60599767321151e-07
501248 2937 1.40796489141059e-07
501760 2940 4.44686943022681e-07
502272 2943 7.4885862687604e-07
502784 2946 1.03840146919368e-06
503296 2949 1.29343340859375e-06
503808 2952 1.49137427574909e-06
504320 2955 1.62477388219708e-06
504832 2958 1.70972424939289e-06
505344 2961 1.76597087612786e-06
505856 2964 1.80655193354174e-06
506368 2967 1.83039384718237e-06
506880 2970 1.81524198097672e-06
507392 2973 1.73655256577787e-06
507904 2976 1.5810096417643e-06
508416 2979 1.34653984901536e-06
508928 2982 1.04790599019617e-06
509440 2985 7.03224481376737e-07
509952 2988 3.27463382401278e-07
510464 2991 -5.85348032540209e-08
510976 2994 -4.33277437641897e-07
511488 2997 -7.73810745712708e-07
512000 3000 -1.0594611661545e-06
512512 3003 -1.2870718397723e-06
513024 3006 -1.46741577741915e-06
513536 3009 -1.61582993004031e-06
514048 3012 -1.74405626073813e-06
514560 3015 -1.84925911911388e-06
515072 3018 -1.91614948508114e-06
515584 3021 -1.92803037966525e-06
516096 3024 -1.87694355040638e-06
516608 3027 -1.76287015588805e-06
517120 3030 -1.58966998255842e-06
517632 3033 -1.3607343474794e-06
518144 3036 -1.07845792305654e-06
518656 3039 -7.55869980573475e-07
519168 3042 -4.14650699532086e-07
519680 3045 -7.70974549413682e-08
520192 3048 2.43080219637616e-07
520704 3051 5.5093249643557e-07
521216 3054 8.5609818965206e-07
521728 3057 1.15587122548959e-06
522240 3060 1.43297015080007e-06
522752 3063 1.65815425623319e-06
523264 3066 1.80660596641396e-06
523776 3069 1.87433393156078e-06
524288 3072 1.87254002317025e-06
524800 3075 1.81473230461228e-06
525312 3078 1.70976534462913e-06
525824 3081 1.55835883823835e-06
526336 3084 1.35908000265209e-06
526848 3087 1.11545062476972e-06
527360 3090 8.37239186522044e-07
527872 3093 5.3664094842847e-07
528384 3096 2.18348378897501e-07
528896 3099 -1.17220018296021e-07
529408 3102 -4.66498466615157e-07
529920 3105 -8.20815844255487e-07
530432 3108 -1.1592014522283e-06
530944 3111 -1.45340227457707e-06
531456 3114 -1.68393910610185e-06
531968 3117 -1.84305060679381e-06
532480 3120 -1.93778180104998e-06
532992 3123 -1.98817878589102e-06
533504 3126 -2.01038034496918e-06
534016 3129 -2.00845921464232e-06
534528 3132 -1.97463040168473e-06
535040 3135 -1.89162686855046e-06
535552 3138 -1.73948276233892e-06
536064 3141 -1.50469785962658e-06
536576 3144 -1.18518390322043e-06
537088 3147 -7.92427873682054e-07
537600 3150 -3.5326115634739e-07
538112 3153 9.78302588778744e-08
538624 3156 5.28256685251644e-07
539136 3159 9.15100068400041e-07
539648 3162 1.2483520284708e-06
540160 3165 1.52742333707001e-06
540672 3168 1.75626944911724e-06
541184 3171 1.93782843244787e-06
541696 3174 2.07326078730443e-06
542208 3177 2.16163566871814e-06
542720 3180 2.19743580733725e-06
543232 3183 2.17144205506713e-06
543744 3186 2.07478192610861e-06
544256 3189 1.90358024681797e-06
544768 3192 1.66441112427841e-06
545280 3195 1.37658178000422e-06
545792 3198 1.06392019278823e-06
546304 3201 7.44056320915328e-07
546816 3204 4.21216949541594e-07
547328 3207 8.91608521950427e-08
547840 3210 -2.60790829061009e-07
548352 3213 -6.32825588181857e-07
548864 3216 -1.01763273918069e-06
549376 3219 -1.39304329048919e-06
549888 3222 -1.73324355462567e-06
550400 3225 -2.01342792086315e-06
550912 3228 -2.21600368927643e-06
551424 3231 -2.33591801068639e-06
551936 3234 -2.37310780363378e-06
552448 3237 -2.33183546045149e-06
552960 3240 -2.22075144875201e-06
553472 3243 -2.04709493483298e-06
553984 3246 -1.82068332875176e-06
554496 3249 -1.5528008338445e-06
555008 3252 -1.25252309524447e-06
555520 3255 -9.30621036055425e-07
556032 3258 -5.9836625057413e-07
556544 3261 -2.60852538405575e-07
557056 3264 8.4492697310425e-08
557568 3267 4.45939315030889e-07
558080 3270 8.25835253137592e-07
558592 3273 1.20717928821508e-06
559104 3276 1.55580028540079e-06
559616 3279 1.83308834247809e-06
560128 3282 2.01748881107702e-06
560640 3285 2.11585609120572e-06
561152 3288 2.14834427570213e-06
561664 3291 2.12845207348209e-06
562176 3294 2.05001355837254e-06
562688 3297 1.89398039720012e-06
563200 3300 1.6541187508116e-06
563712 3303 1.34958016265607e-06
564224 3306 1.0146630140336e-06
564736 3309 6.78469466166923e-07
565248 3312 3.49286226781865e-07
565760 3315 1.57396786855537e-08
566272 3318 -3.33740103916689e-07
566784 3321 -6.93320272663962e-07
567296 3324 -1.04197579291175e-06
567808 3327 -1.35731918166224e-06
568320 3330 -1.62836214358623e-06
568832 3333 -1.85683956054879e-06
569344 3336 -2.04490007405576e-06
569856 3339 -2.18535949606906e-06
570368 3342 -2.26391025858582e-06
570880 3345 -2.26919784368376e-06
571392 3348 -2.20014026375941e-06
571904 3351 -2.06275783110605e-06
572416 3354 -1.86178099548033e-06
572928 3357 -1.59793381554427e-06
573440 3360 -1.27611898900855e-06
573952 3363 -9.1015911254139e-07
574464 3366 -5.21833024701815e-07
574976 3369 -1.33567263401445e-07
575488 3372 2.44239634790345e-07
576000 3375 6.12630780790177e-07
576512 3378 9.78060540887421e-07
577024 3381 1.34348002789504e-06
577536 3384 1.6985106797268e-06
578048 3387 2.01986759756506e-06
578560 3390 2.27797568873135e-06
579072 3393 2.44907447875214e-06
579584 3396 2.52075622135365e-06
580096 3399 2.49135320310603e-06
580608 3402 2.36796614403082e-06
581120 3405 2.15981876078803e-06
581632 3408 1.8792193297999e-06
582144 3411 1.54814346402664e-06
582656 3414 1.1940445781413e-06
583168 3417 8.38702510646098e-07
583680 3420 4.8960096798742e-07
584192 3423 1.3493472156059e-07
584704 3426 -2.42748055045828e-07
585216 3429 -6.47263242129457e-07
585728 3432 -1.06501304200756e-06
586240 3435 -1.46708562547664e-06
586752 3438 -1.82248928566179e-06
587264 3441 -2.11474436461704e-06
587776 3444 -2.33954018098881e-06
588288 3447 -2.50057458305876e-06
588800 3450 -2.60781119651739e-06
589312 3453 -2.66451821163024e-06
589824 3456 -2.6632856366338e-06
590336 3459 -2.58544454651007e-06
590848 3462 -2.4021587055467e-06
591360 3465 -2.09606233948183e-06
591872 3468 -1.67771530534588e-06
592384 3471 -1.18446431878575e-06
592896 3474 -6.70909396076394e-07
593408 3477 -1.8191807374212e-07
593920 3480 2.69163466616624e-07
594432 3483 6.87000075103858e-07
594944 3486 1.08006948120603e-06
595456 3489 1.44835635825729e-06
595968 3492 1.77165945758031e-06
596480 3495 2.03249834204808e-06
596992 3498 2.22777801139906e-06
597504 3501 2.35924757577327e-06
598016 3504 2.43170689464455e-06
598528 3507 2.44034174371546e-06
599040 3510 2.36949578155897e-06
599552 3513 2.20954996546792e-06
600064 3516 1.96279783368661e-06
600576 3519 1.64629370142966e-06
601088 3522 1.28702680014296e-06
601600 3525 9.02831703425423e-07
602112 3528 4.98811525643144e-07
602624 3531 7.36134098779513e-08
603136 3534 -3.76639032631096e-07
603648 3537 -8.38932749917009e-07
604160 3540 -1.28087147237697e-06
604672 3543 -1.67003575140951e-06
605184 3546 -1.97848369153769e-06
605696 3549 -2.19588399961806e-06
606208 3552 -2.33698498641392e-06
606720 3555 -2.41925137675671e-06
607232 3558 -2.45641243763664e-06
607744 3561 -2.45429381450532e-06
608256 3564 -2.40084388171439e-06
608768 3567 -2.28271940180198e-06
609280 3570 -2.09212448981266e-06
609792 3573 -1.8236314415386e-06
610304 3576 -1.48320425552049e-06
610816 3579 -1.08427670690279e-06
611328 3582 -6.43597803056731e-07
611840 3585 -1.83679058012276e-07
612352 3588 2.7756580356827e-07
612864 3591 7.29114701597172e-07
613376 3594 1.16033898573152e-06
613888 3597 1.56079261289369e-06
614400 3600 1.91517670293167e-06
614912 3603 2.20621615488776e-06
615424 3606 2.42302008855728e-06
615936 3609 2.55962377108126e-06
616448 3612 2.61511442280651e-06
616960 3615 2.59273605912732e-06
617472 3618 2.49695444242398e-06
617984 3621 2.33517786216519e-06
618496 3624 2.11570447926922e-06
619008 3627 1.8401741108553e-06
619520 3630 1.50540086140845e-06
620032 3633 1.11055614388608e-06
620544 3636 6.61377697420056e-07
621056 3639 1.77753236856401e-07
621568 3642 -3.09252404266064e-07
622080 3645 -7.72119940622971e-07
622592 3648 -1.19528256549591e-06
623104 3651 -1.57528186783014e-06
623616 3654 -1.91647969306889e-06
624128 3657 -2.22109816657731e-06
624640 3660 -2.48069976410963e-06
625152 3663 -2.68148069901182e-06
625664 3666 -2.811112505049e-06
626176 3669 -2.86004349165805e-06
626688 3672 -2.82349389063919e-06
627200 3675 -2.70065991356499e-06
627712 3678 -2.49445804990335e-06
628224 3681 -2.21461057129423e-06
628736 3684 -1.87661625306829e-06
629248 3687 -1.4948072520825e-06
629760 3690 -1.07650918202369e-06
630272 3693 -6.23579322802674e-07
630784 3696 -1.380398217136e-07
631296 3699 3.71261288055985e-07
631808 3702 8.80418874899595e-07
632320 3705 1.3562911972309e-06
632832 3708 1.77118958811433e-06
633344 3711 2.10876503218139e-06
633856 3714 2.36787607410695e-06
634368 3717 2.55580861467719e-06
634880 3720 2.67287273983828e-06
635392 3723 2.71071545043431e-06
635904 3726 2.65922707908994e-06
636416 3729 2.51506295419142e-06
636928 3732 2.28820489849204e-06
637440 3735 1.99498241743016e-06
637952 3738 1.64815083565337e-06
638464 3741 1.25539995170754e-06
638976 3744 8.20854698828059e-07
639488 3747 3.55720098315023e-07
640000 3750 -1.15796601944274e-07
640512 3753 -5.69099688054128e-07
641024 3756 -9.8835134979583e-07
641536 3759 -1.3701029165352e-06
642048 3762 -1.72347323952632e-06
642560 3765 -2.05745723285495e-06
643072 3768 -2.37032048970168e-06
643584 3771 -2.64537258186986e-06
644096 3774 -2.84847349701639e-06
644608 3777 -2.94071232767812e-06
645120 3780 -2.8979379824157e-06
645632 3783 -2.72111275658434e-06
646144 3786 -2.43999735525358e-06
646656 3789 -2.09935991050175e-06
647168 3792 -1.73469660878949e-06
647680 3795 -1.3608041912224e-06
648192 3798 -9.69291357210426e-07
648704 3801 -5.39108129580331e-07
649216 3804 -5.89588549759743e-08
649728 3807 4.63680276638132e-07
650240 3810 1.0032875251172e-06
650752 3813 1.52314710421834e-06
651264 3816 1.99290687970053e-06
651776 3819 2.39094219674437e-06
652288 3822 2.69764012570184e-06
652800 3825 2.8980338208194e-06
653312 3828 2.98345908507968e-06
653824 3831 2.95708538096245e-06
654336 3834 2.83602688726052e-06
654848 3837 2.64002780241716e-06
655360 3840 2.38332212570334e-06
655872 3843 2.06985125045676e-06
656384 3846 1.6940859775972e-06
656896 3849 1.25508300830061e-06
657408 3852 7.6314171907172e-07
657920 3855 2.36664635948119e-07
658432 3858 -2.99247812190143e-07
658944 3861 -8.20342525543123e-07
659456 3864 -1.3095485079077e-06
659968 3867 -1.75554343359422e-06
660480 3870 -2.15162764712472e-06
660992 3873 -2.49348283464497e-06
661504 3876 -2.77535303716944e-06
662016 3879 -2.98906794905474e-06
662528 3882 -3.12499252103519e-06
663040 3885 -3.17371133187036e-06
663552 3888 -3.12937093313887e-06
664064 3891 -2.99000369196985e-06
664576 3894 -2.7572672136259e-06
665088 3897 -2.43938128080623e-06
665600 3900 -2.04842169359594e-06
666112 3903 -1.59624337410965e-06
666624 3906 -1.09642577661521e-06
667136 3909 -5.65497937470551e-07
667648 3912 -2.46983895611099e-08
668160 3915 4.98781122154922e-07
668672 3918 9.80640720511659e-07
669184 3921 1.41060122123074e-06
669696 3924 1.7930276538243e-06
670208 3927 2.13645991833098e-06
670720 3930 2.44197226274125e-06
671232 3933 2.69851686320666e-06
671744 3936 2.88760797951761e-06
672256 3939 2.9935311490299e-06
672768 3942 3.00804882083073e-06
673280 3945 2.92594413942772e-06
673792 3948 2.73934149595349e-06
674304 3951 2.44266665255598e-06
674816 3954 2.04278796061815e-06
675328 3957 1.56403628843793e-06
675840 3960 1.0459903806815e-06
676352 3963 5.2816975791546e-07
676864 3966 3.200526523054e-08
677376 3969 -4.42710080949064e-07
677888 3972 -9.0824331079035e-07
678400 3975 -1.3730345462465e-06
678912 3978 -1.82888070634989e-06
679424 3981 -2.24974172796626e-06
679936 3984 -2.60069096378612e-06
680448 3987 -2.85469464238281e-06
680960 3990 -3.00407931744219e-06
681472 3993 -3.05555289300402e-06
681984 3996 -3.02367513375421e-06
682496 3999 -2.92310741559733e-06
683008 4002 -2.75763884601096e-06
683520 4005 -2.52562743900227e-06
684032 4008 -2.22654790527924e-06
684544 4011 -1.85725033686782e-06
685056 4014 -1.41515767659197e-06
685568 4017 -9.00974625441245e-07
686080 4020 -3.26368640998757e-07
686592 4023 2.75029791907349e-07
687104 4026 8.57427482208996e-07
687616 4029 1.38037955629215e-06
688128 4032 1.82481119500774e-06
688640 4035 2.20093307156708e-06
689152 4038 2.52836065760623e-06
689664 4041 2.81078679811623e-06
690176 4044 3.03000739440099e-06
690688 4047 3.15765781113092e-06
691200 4050 3.17655825328219e-06
691712 4053 3.08870831009662e-06
692224 4056 2.90345313544591e-06
692736 4059 2.62479961564838e-06
693248 4062 2.24921885877652e-06
693760 4065 1.77919282966771e-06
694272 4068 1.23863909826701e-06
694784 4071 6.6738426893994e-07
695296 4074 1.00713691014276e-07
695808 4077 -4.46972130375546e-07
696320 4080 -9.80637739601734e-07
696832 4083 -1.50711018852237e-06
697344 4086 -2.01975047751946e-06
697856 4089 -2.49594385668246e-06
698368 4092 -2.90631502340463e-06
698880 4095 -3.22535283932286e-06
699392 4098 -3.4354401265207e-06
699904 4101 -3.52960123913777e-06
700416 4104 -3.51291198450124e-06
700928 4107 -3.40006151088127e-06
701440 4110 -3.21035047503883e-06
701952 4113 -2.95729795535705e-06
702464 4116 -2.63755336322284e-06
702976 4119 -2.23438256490922e-06
703488 4122 -1.73718891932587e-06
704000 4125 -1.15726498013623e-06
704512 4128 -5.27055844381104e-07
705024 4131 1.14846071248692e-07
705536 4134 7.44185881938038e-07
706048 4137 1.35610962129106e-06
706560 4140 1.94812291985867e-06
707072 4143 2.50018668962188e-06
707584 4146 2.96952295458931e-06
708096 4149 3.30838267922168e-06
708608 4152 3.49052012602762e-06
709120 4155 3.52220350406436e-06
709632 4158 3.43487070359964e-06
710144 4161 3.26536822729218e-06
710656 4164 3.03592164219833e-06
711168 4167 2.75262708238145e-06
711680 4170 2.41554464070679e-06
712192 4173 2.02367769562806e-06
712704 4176 1.57721900850991e-06
713216 4179 1.07240855146714e-06
713728 4182 4.99998875569619e-07
714240 4185 -1.39161080220035e-07
714752 4188 -8.23327537371858e-07
715264 4191 -1.50858957517207e-06
715776 4194 -2.13827548637887e-06
716288 4197 -2.66653399496743e-06
716800 4200 -3.0689291891915e-06
717312 4203 -3.33895044963533e-06
717824 4206 -3.48417687073216e-06
718336 4209 -3.51645502108956e-06
718848 4212 -3.44913779266569e-06
719360 4215 -3.30127173830513e-06
719872 4218 -3.08945316548194e-06
720384 4221 -2.81914250640781e-06
720896 4224 -2.48436293982245e-06
721408 4227 -2.07318893057435e-06
721920 4230 -1.58215132287484e-06
722432 4233 -1.02516811549365e-06
722944 4236 -4.27530618866811e-07
723456 4239 1.84519587801893e-07
723968 4242 7.91174673829444e-07
724480 4245 1.37751192702008e-06
724992 4248 1.92545369463778e-06
725504 4251 2.41391913159021e-06
726016 4254 2.82527183310516e-06
726528 4257 3.14895232353528e-06
727040 4260 3.37977460753234e-06
727552 4263 3.50833836112401e-06
728064 4266 3.51601676779957e-06
728576 4269 3.38676614554046e-06
729088 4272 3.12372700808359e-06
729600 4275 2.75485628822373e-06
730112 4278 2.32305361755264e-06
730624 4281 1.86430876830048e-06
731136 4284 1.38834996768304e-06
731648 4287 8.80591683495096e-07
732160 4290 3.25192423826656e-07
732672 4293 -2.77759539895488e-07
733184 4296 -9.09175119067925e-07
733696 4299 -1.53527598862048e-06
734208 4302 -2.12349825669493e-06
734720 4305 -2.65032902118879e-06
735232 4308 -3.09659895408516e-06
735744 4311 -3.44796335066485e-06
736256 4314 -3.69257381494637e-06
736768 4317 -3.82230452639977e-06
737280 4320 -3.838147422389e-06
737792 4323 -3.74403557293343e-06
738304 4326 -3.5454817345102e-06
738816 4329 -3.25148855589125e-06
739328 4332 -2.8703944935871e-06
739840 4335 -2.41209953716821e-06
740352 4338 -1.88618376773822e-06
740864 4341 -1.29907276431786e-06
741376 4344 -6.6236908231891e-07
741888 4347 4.19846097891421e-09
742400 4350 6.73528244771719e-07
742912 4353 1.31324934116809e-06
743424 4356 1.90020246728074e-06
743936 4359 2.42790985350724e-06
744448 4362 2.89660310181361e-06
744960 4365 3.3033565739381e-06
745472 4368 3.63371383175466e-06
745984 4371 3.86167548974147e-06
746496 4374 3.96403687586091e-06
747008 4377 3.9262466933515e-06
747520 4380 3.74446787900909e-06
748032 4383 3.42927800096929e-06
748544 4386 2.99624880297283e-06
749056 4389 2.4662692278554e-06
749568 4392 1.87086672194704e-06
750080 4395 1.23937252593061e-06
750592 4398 5.95329550966214e-07
751104 4401 -4.21109888411e-08
751616 4404 -6.65277846155531e-07
752128 4407 -1.26929843589679e-06
752640 4410 -1.8437423157817e-06
753152 4413 -2.37618252961696e-06
753664 4416 -2.85252632640044e-06
754176 4419 -3.2640609648601e-06
754688 4422 -3.61100318309997e-06
755200 4425 -3.89041097131778e-06
755712 4428 -4.08348767483235e-06
756224 4431 -4.1519106346292e-06
756736 4434 -4.05116975401021e-06
757248 4437 -3.75584431565702e-06
757760 4440 -3.27846200801935e-06
758272 4443 -2.6702483737334e-06
758784 4446 -1.99980015798305e-06
759296 4449 -1.32284831591796e-06
759808 4452 -6.6547154747565e-07
760320 4455 -2.78755296310759e-08
760832 4458 5.97903385953753e-07
761344 4461 1.21184477847255e-06
761856 4464 1.80221205359331e-06
762368 4467 2.35075267909823e-06
762880 4470 2.84241833797193e-06
763392 4473 3.26667368434346e-06
763904 4476 3.60891250358858e-06
764416 4479 3.847589796501e-06
764928 4482 3.95827449869801e-06
765440 4485 3.92453530159752e-06
765952 4488 3.74938651978621e-06
766464 4491 3.45405017559644e-06
766976 4494 3.06584092834833e-06
767488 4497 2.59985130476362e-06
768000 4500 2.04953667447929e-06
768512 4503 1.40137661613838e-06
769024 4506 6.57347856354523e-07
769536 4509 -1.49128979998507e-07
770048 4512 -9.5449913542794e-07
770560 4515 -1.69299201937026e-06
771072 4518 -2.32653760552721e-06
771584 4521 -2.85246655768461e-06
772096 4524 -3.28833322334302e-06
772608 4527 -3.64618240549357e-06
773120 4530 -3.91887493824851e-06
773632 4533 -4.0873996483805e-06
774144 4536 -4.13891155201407e-06
774656 4539 -4.07646935432625e-06
775168 4542 -3.90965654950008e-06
775680 4545 -3.64132465158589e-06
776192 4548 -3.26452495364005e-06
776704 4551 -2.77043762489225e-06
777216 4554 -2.16448938386287e-06
777728 4557 -1.47290797205698e-06
778240 4560 -7.34205946335903e-07
778752 4563 1.14204177659685e-08
779264 4566 7.33118931109488e-07
779776 4569 1.41366938979706e-06
780288 4572 2.04375453535142e-06
780800 4575 2.61882958083109e-06
781312 4578 3.13417472561142e-06
781824 4581 3.57697654121599e-06
782336 4584 3.92657829837847e-06
782848 4587 4.15722823825423e-06
783360 4590 4.24685954267935e-06
783872 4593 4.19130865566737e-06
784384 4596 4.00385059935079e-06
784896 4599 3.70633297277868e-06
785408 4602 3.31643179828298e-06
785920 4605 2.83503924539463e-06
786432 4608 2.25522424949271e-06
786944 4611 1.58001726029874e-06
787456 4614 8.31442090837781e-07
787968 4617 4.94857170643423e-08
788480 4620 -7.22860978149835e-07
788992 4623 -1.45314832371306e-06
789504 4626 -2.12044003339749e-06
790016 4629 -2.71055763950107e-06
790528 4632 -3.2086428351973e-06
791040 4635 -3.59933722644604e-06
791552 4638 -3.87539323721597e-06
792064 4641 -4.04025028635667e-06
792576 4644 -4.10426893393393e-06
793088 4647 -4.07593878243617e-06
793600 4650 -3.9546598125397e-06
794112 4653 -3.73570446708738e-06
794624 4656 -3.41540602469633e-06
795136 4659 -2.99380297090254e-06
